,ITEM_ID,BATTERY,RESOLUTION
0,b5649d7c-4651-458d-a07f-912f253784ce,1000mAh,176x220pixels
1,7d3e7f5b-8ac8-49a9-a960-8a24773a8280,1200mAh,176x220pixels
2,1d3ae532-f790-44ca-a8e8-f55aa9b66526,570mAh,128x141pixels
3,1a3fa9d4-e320-4873-be58-f3f6af5f99f4,5000mAh,800x1280pixels
4,0c47dade-1ec0-483a-9ab4-1b87604bdaf8,890mAh,176x220pixels
5,a6d169a8-4d21-4cb3-b04a-ba3c978b6009,2700mAh,720x1280pixels
6,f9a481fc-b635-416b-83da-ea944f206a6d,950mAh,128x128pixels
7,95a38ced-a972-4e9f-b54d-fbd109ad956e,700mAh,128x160pixels
8,437f3c6b-5fe6-4af0-9db6-ff3a0f44f585,950mAh,240x320pixels
9,fdf9d37f-2115-4004-99f2-0d56f8e5d016,800mAh,240x320pixels
10,2cc89e77-685d-423c-80a9-82e07ea13b7c,2100mAh,720x1280pixels
11,81bde330-051f-4db6-96c7-886dda3171b3,1050mAh,240x320pixels
12,3cd33786-a655-407f-b22f-c4150b1e529e,2730mAh,720x1440pixels
13,90946422-31ea-4dd1-8651-a9e3a122bcf6,3000mAh,720x1440pixels
14,d9d3351f-1fdb-4ba7-b757-55f18a1a2dc0,2500mAh,720x1280pixels
15,0d748c4b-8fae-47e7-80f5-bfbae8c4c2f1,1810mAh,720x1280pixels
16,8b93bc57-62ca-4c6f-a83a-c527da84f224,1000mAh,240x320pixels
17,9f6d63f4-6fd0-4c31-89b6-fffd6aedcce2,830mAh,84x48pixels
18,73d9a14d-0fa0-44ca-b367-e4f9af3986ed,2000mAh,480x854pixels
19,8325cf2c-2158-4b9b-ab7a-d55e072e9ce6,1250mAh,480x800pixels
20,7e06b209-80dc-493d-a8a8-e4e20ffbe63b,1020mAh,320x240pixels
21,e75111c1-1770-4bfe-aa5f-60b72612e8a9,600mAh,240x320pixels
22,c102c29e-ed5a-4b27-b2ec-1a4001e6757e,8827mAh,1536x2048pixels
23,58c0ca95-b1ff-4cd4-a7c2-2ea2ce714ad4,1750mAh,720x1280pixels
24,4743a2b1-89a1-42c2-bd95-fe6feb8befea,1800mAh,480x854pixels
25,78770acc-562f-42a9-89fb-22bf5b6b60a2,900mAh,176x220pixels
26,5a9e66ed-32c5-461e-a4b0-a56948c3235b,650mAh,100x64pixels
27,6b81a807-d7eb-41b5-8e6e-887455775c38,2200mAh,480x854pixels
28,e2c8393e-2109-4a91-966f-f30274d0515d,1700mAh,540x960pixels
29,af7da9e1-844a-4c9a-8277-0127feda35b4,900mAh,240x320pixels
30,1f730c26-3e59-41f3-b031-e054a137ee93,650mAh,128x128pixels
31,8b2a170c-e2e9-4d94-ae1a-994114ac11a5,1400mAh,480x854pixels
32,e2babef4-5219-4b68-9fcc-9806ef1dffb1,1390mAh,480x854pixels
33,9c05f815-7ecf-4054-9132-7f47455d3a43,1400mAh,480x800pixels
34,07441beb-9b1a-4c25-b302-2f11362cff86,900mAh,176x220pixels
35,7c465a98-18f5-4049-81b8-3db28750ce8f,1300mAh,480x800pixels
36,022b3ccd-1566-4bdd-800f-bf7afb7951b2,2100mAh,720x1280pixels
37,3225baba-d5ea-44a5-a8d5-d0e015059709,2000mAh,480x854pixels
38,b105252a-e06c-413a-a635-b911fc3c4033,900mAh,128x128pixels
39,16842055-6a51-443b-843c-51bc85dee353,720mAh,128x128pixels
40,8ebed2f4-c0c0-4dc7-9875-1836502f2eb3,2000mAh,480x960pixels
41,f1eb9d5b-94d8-4c3d-bf0b-3cad66c5f58e,2600mAh,1080x1920pixels
42,f1afa8b2-52d9-4488-84de-30875c2c9198,1300mAh,240x320pixels
43,e6a872ab-6a79-4703-9148-1efdca2289e5,930mAh,128x128pixels
44,23b9529f-e42b-4546-8066-36771aa9ee1a,950mAh,320x240pixels
45,c3801e4e-9cdf-4ca8-80ec-7c7ce09a84fa,700mAh,84x48pixels
46,75edcc32-739d-4f67-aa1b-167ccb734c48,1400mAh,320x480pixels
47,7c0147c7-4dba-4d4c-a543-57c5da5a4774,700mAh,176x220pixels
48,cd8355e3-d70a-4243-a216-37e30319023d,720mAh,124x64pixels
49,39d2d574-f973-4dbb-9c2c-8ae277a812db,600mAh,600x1024pixels
50,3dbfc503-b595-4fed-bb7f-b60202b0b835,8620mAh,1200x1920pixels
51,dc073623-4b95-47d9-93cb-0171c20baa04,1650mAh,720x1280pixels
52,9fbbfe69-98f3-43a6-9a78-7d8ac254a777,1450mAh,480x360pixels
53,7f9e25ec-34a9-4b27-9f97-041c58e6640e,3000mAh,720x1440pixels
54,0d76bb55-cd0f-4efb-afda-613b6c6e1fae,570mAh,240x320pixels
55,b11944ce-c888-4ddb-8f64-f89a6d628288,2100mAh,720x1280pixels
56,0451bd94-f74f-4fb6-99db-951275508ae3,4500mAh,768x1024pixels
57,a5a8b97e-8464-4da5-ab78-3531e5d313df,5000mAh,1200x1920pixels
58,31e38e25-f6be-43de-a7d1-facbc1f1529b,6000mAh,768x1024pixels
59,7f9c0b7e-0fdb-437d-8a7d-e165e81cced4,5020mAh,1080x2400pixels
60,90074fe9-2a80-4247-86b0-12211cf024dd,3000mAh,720x1280pixels
61,c11354c7-a2fa-489d-9850-1ce5dcebeec5,1500mAh,480x800pixels
62,7c94be0d-e4c7-4f22-8adc-7619f1df5c26,900mAh,176x220pixels
63,39f54127-2206-445c-ab15-ffb044137c56,600mAh,480x800pixels
64,bc3a633f-d164-4911-a931-4350f958d767,6000mAh,768x1024pixels
65,ca3f03ff-72a5-4a6a-9cd9-a513fcde604e,600mAh,68x96pixels
66,321f93c5-c289-4418-ae3d-05c524f867ad,1200mAh,240x320pixels
67,55726766-f273-405b-b90c-c339a0d9609a,600mAh,240x320pixels
68,9943c887-d454-420d-a39b-b4a81e2980b7,600mAh,240x320pixels
69,b98a3579-2a92-47e5-a9ae-65d776c76ac3,1440mAh,240x320pixels
70,8840e8ea-d896-4132-80ea-1247b95bb62d,800mAh,128x160pixels
71,977d3ee7-3a40-4043-8164-c7f66e384940,2730mAh,720x1280pixels
72,a01ee85c-f301-4e22-97e0-ca3065ddb19d,4020mAh,1080x2340pixels
73,d52e376b-d958-4d52-ab6d-f7731c7adf22,11560mAh,1536x2048pixels
74,00f54e56-4199-4102-ba91-5040f4e45236,4000mAh,720x1600pixels
75,ae654958-7897-4115-8baf-b5059c20d72b,1130mAh,240x320pixels
76,8c36eff5-e299-49c0-8e91-5c72ed5fa605,800mAh,176x220pixels
77,d23b8ca9-cd3d-4e92-958c-922cfcd8fb29,1700mAh,480x854pixels
78,4c8e8bed-371a-4664-a5a8-974c65d52d63,2800mAh,720x1280pixels
79,5974943a-3e9d-4f94-92fa-012f55151d21,1650mAh,540x960pixels
80,92caea3c-23c8-4bb0-8a4b-43372adafaae,2300mAh,480x854pixels
81,371cef78-adf2-4cb0-8e78-02f8cb7ee013,2350mAh,540x960pixels
82,77f436a6-b074-42e0-af6d-827b8626e854,750mAh,132x176pixels
83,1249276c-851a-4f46-81fb-873fd7d5f60f,1000mAh,240x320pixels
84,7220b5cd-110b-4105-813a-677846470816,1700mAh,480x854pixels
85,564f9ced-8823-45ed-a781-1dc555353dd9,1490mAh,240x320pixels
86,b354d578-7bc2-460e-a1d1-703ae0af1343,1100mAh,320x240pixels
87,a3d102ea-c01f-4c8b-ae38-08402bc32712,1130mAh,320x240pixels
88,704532b6-1007-476b-86ee-0258f28edc49,3000mAh,1080x1920pixels
89,39db1f40-046d-4fa3-861b-babfc4ba4023,850mAh,96x92pixels
90,85af708d-49ef-45dd-9b1f-8770885ba4b2,2400mAh,480x800pixels
91,4a0fa2b3-51a0-4bee-aa6f-90c9905960d2,1100mAh,240x320pixels
92,e841f219-7a7c-4509-bfe2-c13239950051,1100mAh,176x220pixels
93,b03a9d18-3bd9-4d1c-9ebb-2d94cad7c7cc,1500mAh,320x240pixels
94,5965d439-5b58-4081-86a2-48bff40d7938,4000mAh,1080x2232pixels
95,208ca535-3433-429a-94a3-393c3ec3a7f1,600mAh,101x33pixels
96,5a5a64ef-dfa2-4c4c-acec-c398c820c945,2500mAh,480x854pixels
97,26fd5578-6417-4b0a-a416-bd43083eec22,1300mAh,240x320pixels
98,04f22a7d-97fd-4650-afb6-3537963f647d,2800mAh,720x1280pixels
99,bdf090db-87a0-4ad5-9604-59c883c6432a,4000mAh,1080x2400pixels
100,8d03a031-ad51-490a-8a4f-53ca16629600,880mAh,176x220pixels
101,772d4a37-ca54-4df2-bd5e-611ac3b9e4ac,4065mAh,1080x2340pixels
102,62bc427f-3b4f-446a-9df4-e20168f0a110,3000mAh,720x1520pixels
103,ef6ca20c-3280-4ac7-bbdb-6c1d055ec62e,1350mAh,320x480pixels
104,ed801768-d0df-431e-8883-aa96862f246a,650mAh,96x64pixels
105,1de0c711-042b-4b47-93d9-3a7d8d969ac6,1030mAh,240x400pixels
106,96596821-ee6c-43ef-849d-44a305d745ae,1530mAh,320x480pixels
107,4509f2ec-2ed9-4906-ab6c-97f8f945defb,300mAh,360x360pixels
108,eadfaa17-79ca-4e17-a37f-b3ba522d35c2,1450mAh,240x320pixels
109,f47de389-968c-4387-b753-5fede3cbb100,500mAh,240x320pixels
110,441b42ed-62f4-48c7-aada-1998352c5953,600mAh,101x80pixels
111,f10a57a1-bd56-4118-a083-4838b0aeccfc,1300mAh,320x480pixels
112,a5f2bd4e-61a8-4643-afea-188825cbb3fa,720mAh,128x160pixels
113,dce757b6-709e-48c2-89d7-3002963b871e,1000mAh,240x400pixels
114,9b60b9e7-d6ec-4401-a773-7d037f858418,650mAh,128x160pixels
115,c6a2f400-09ea-4b63-b022-b5ccc3601739,6400mAh,768x1024pixels
116,92c1bcb5-1f99-455e-a425-ffbf55dea48a,5000mAh,720x1544pixels
117,4041309b-d154-45bf-9adf-c69edfa80697,4300mAh,1080x2400pixels
118,3b4ec162-f680-4323-8ddc-95cf37366248,1500mAh,320x480pixels
119,d2a2b6d3-7d7a-483e-9112-4a73d2be964c,4000mAh,720x1560pixels
120,5ae17870-063e-42e4-a7c5-57ecce707db9,1500mAh,320x240pixels
121,a17b4428-be23-4ccf-820c-e4d502b18979,4000mAh,1080x2160pixels
122,ac29564f-2c74-47c7-8f00-5249c8eda839,3500mAh,720x1280pixels
123,fd282367-138f-4f8c-bd7b-4e07242bff34,420mAh,390x390pixels
124,a26ff192-35d6-411a-9337-abbb793d6b1b,3100mAh,1080x1920pixels
125,73377697-7108-4d8f-9ee1-72603dc4ece9,2000mAh,720x1280pixels
126,b840c965-bff0-481f-8d65-e3c2142a39c5,2250mAh,540x960pixels
127,cd86351f-f720-451a-94bc-07c24a8579ef,2600mAh,1080x1920pixels
128,6c273684-b5ee-4fe5-9d6b-9da887a75e69,1500mAh,240x320pixels
129,98d900ee-a0d1-4bc2-9eab-79ebf422503e,2200mAh,640x480pixels
130,9ab6eb6e-665d-4517-9761-3fe560c91a1e,3430mAh,1080x2280pixels
131,004112e9-dca1-4402-ae6d-74e2b80b8c05,750mAh,220x176pixels
132,385022fa-d596-48f4-a062-525f933994d1,4000mAh,800x1280pixels
133,c108b04b-64fd-43bd-80fc-4819eb01803a,1400mAh,320x480pixels
134,34cce05b-39b9-4927-897f-753e118fdd48,600mAh,128x128pixels
135,4d23c80d-133c-41b3-ba1c-bd9279a3b902,2400mAh,720x1280pixels
136,6bd74f2d-90c0-4ca6-9663-f3bbe9bf405b,3000mAh,720x1440pixels
137,9e90d949-90f7-443a-8a85-fa7e590bc589,850mAh,176x220pixels
138,856b01b1-5353-4e82-b11c-41088302e6d8,3000mAh,600x1024pixels
139,a11ef46f-dedf-48c8-94b0-3c9572608c5f,279mAh,390x312pixels
140,e1669081-8ffc-4dec-97a6-e9176d7f6651,4400mAh,1344x2772pixels
141,924010e4-eaf2-4067-91dd-854ad41b593c,1000mAh,176x220pixels
142,e592c09b-990c-4b6a-842a-71c4b2de9773,4000mAh,720x1600pixels
143,80b2666c-0003-4e2e-80a4-033c69b462dd,4550mAh,1080x1920pixels
144,5414abd6-a246-4e44-83d9-0ca413290ab0,1000mAh,176x220pixels
145,f51fb444-2d3a-4f88-bda3-667114177172,7000mAh,800x1280pixels
146,291d81c2-023b-40f0-8d06-ff3c8ccd1dfb,800mAh,128x160pixels
147,b58b6838-04f7-4d13-bd35-633883f94a11,3000mAh,1080x1920pixels
148,40c1a10f-c9d4-45df-8b81-1b9bc7ab9fd8,3500mAh,1080x2220pixels
149,99f92741-2b2f-45e0-bac4-9267db549c8b,1500mAh,240x320pixels
150,4307367e-5c37-4798-b18b-ed1da0dd0cf4,1000mAh,176x220pixels
151,c7beb662-1cc4-4709-a420-ef768a43f6ad,4000mAh,1080x2340pixels
152,17d2050f-19c4-4cf9-bf10-a83421f0052d,600mAh,128x160pixels
153,ddb21847-ca9b-45ec-b7fc-4cf3409ffda7,2550mAh,720x1280pixels
154,23e77743-ff28-400a-811f-e08d3cab5e45,1200mAh,320x480pixels
155,c4ccb793-988a-46d9-bb54-8d58ca35213c,1500mAh,480x800pixels
156,ead8e13f-9f00-45c6-8c60-9f52359af39e,3000mAh,1080x1920pixels
157,f9a771a3-41b9-4086-ad06-8c1b0ce8390e,1000mAh,128x160pixels
158,1a8bc5f7-290f-4858-bcc4-b61c52fe2e01,3000mAh,1440x2560pixels
159,3bd3c619-58a4-4ea0-9c1a-c85e7a3a5c39,1780mAh,720x1280pixels
160,5ced3c03-4769-4822-8151-8c30e45fdf25,3020mAh,720x1560pixels
161,0451dee1-8367-4bf7-95a8-1e96c4f96784,1200mAh,240x320pixels
162,32547587-e915-4736-9ae6-9c36ae7c71a6,600mAh,320x240pixels
163,59b807a4-23d7-49f4-b3c1-64035bb3f35b,800mAh,240x320pixels
164,c29ec39d-7e15-445f-9077-26c63abfdc04,3500mAh,1080x2246pixels
165,49f1a917-d624-4aa0-a797-35dc7f925f52,1750mAh,128x160pixels
166,d75b932b-0593-4cbe-b61d-a9b2dbd16e51,1000mAh,240x320pixels
167,316d4b5e-6b0a-407e-8eb8-174eca95dc65,600mAh,1080x1920pixels
168,d31c6edf-9d66-4d87-bc80-854b328678e1,410mAh,320x320pixels
169,898401f5-771d-40c8-a4b5-a230c0bb68a5,5000mAh,720x1560pixels
170,48ed391e-d56e-46d8-968d-b2b4b1a99b0c,690mAh,128x128pixels
171,d9f978ee-732c-41cb-88db-221ac4b9bdf6,3100mAh,1080x1920pixels
172,f99f0a8b-9c31-40dc-a503-a0ea9f276991,4500mAh,1080x2520pixels
173,e51f4c9b-ecdb-40db-8d8b-7d61f1fb2890,2540mAh,540x960pixels
174,d47cc222-a711-4d26-9e86-d84cd9ba8dd4,4000mAh,768x1024pixels
175,813427bd-9011-462b-88d6-f0978f5cf8c3,4000mAh,1440x2880pixels
176,1c770ee6-98d7-4820-a5e0-3e7abc165f8d,2700mAh,1080x1920pixels
177,0eceb1b4-30c6-4ce8-bd60-d4208ceb7acb,630mAh,220x176pixels
178,239e42a6-e8d8-404e-91f3-d713a2806ad0,3260mAh,1440x2560pixels
179,308e1a70-e10e-4f27-a923-5f1ac5d3c5d7,750mAh,128x128pixels
180,9f886e97-dc28-4690-a011-8f8fb3ce5bfe,2700mAh,720x1280pixels
181,44193a01-20c1-4a97-896f-97940ec25ea6,3000mAh,1080x1920pixels
182,46edff4c-918c-465a-8e03-2c30cff1a387,600mAh,480x800pixels
183,61e5b9c4-a941-432e-b85a-baa285bb7207,900mAh,128x160pixels
184,a4173910-cab1-4897-8317-ac138109ba8d,4000mAh,1080x2160pixels
185,f49331ff-4021-465f-bb42-9dd6a5933791,800mAh,240x320pixels
186,8fe445a6-1ced-4862-a43b-5bcfba3f3ab3,3500mAh,600x1024pixels
187,d9fe4de3-00e2-4d77-ad9e-309b2ea6298a,2050mAh,720x1280pixels
188,651a5288-9ae5-4532-8308-bfec752d845c,900mAh,240x260pixels
189,4b953f5a-79b2-4a1e-b37b-3d05bd3bb64a,4150mAh,1080x1920pixels
190,b2d44b10-c317-49cc-acb3-4bf9e5af8a74,1300mAh,320x480pixels
191,12e365f0-3230-4508-a96a-1ebb361aac6d,1800mAh,480x854pixels
192,7aa5ac4f-7801-4d7c-bc34-df4133fb2df7,2100mAh,480x854pixels
193,50cc06f2-6218-42ab-8633-879ad8181607,750mAh,240x320pixels
194,657b8b5a-9899-4670-a810-98d4293f5933,1250mAh,240x320pixels
195,74752034-abd6-482b-a652-eca3bdbc906e,1900mAh,480x854pixels
196,a3474b22-2c5b-41f1-87b7-ea8040b6b2f6,1100mAh,240x320pixels
197,cafd3a0b-1cee-4b14-a852-fe507c8197cd,2600mAh,720x1280pixels
198,7266d3ec-a6ab-4ac3-b3bf-0b4bdd12ca13,315mAh,320x320pixels
199,a88f0fe2-5621-4168-a378-045362dcdc91,600mAh,128x128pixels
200,96d88fed-f26d-460f-9741-df5d55b5d8dd,3040mAh,720x1440pixels
201,6fc26dd9-832e-449e-88f5-b7e3e79e4a4a,1500mAh,360x640pixels
202,2cb36a55-d238-45cf-a3ac-8e2cdf187c43,1800mAh,480x800pixels
203,bdd60031-236f-4b31-81bc-d85c5d555e4f,4600mAh,800x1280pixels
204,9b23f522-d90c-4f8e-9195-655ba8ca69bf,4000mAh,720x1280pixels
205,36c8e225-7568-4be9-a94a-c79f9e445e7f,1500mAh,176x220pixels
206,39ebddd2-7869-48a0-a3c4-5d9ce73bc04b,1230mAh,320x480pixels
207,10e29d00-cb8e-45f1-b2b9-2db36601cf9a,600mAh,96x92pixels
208,ae6b8d70-760c-4e97-936b-4c56aaf9eac3,4015mAh,1080x2400pixels
209,ccb407b1-7620-4303-8521-fea86c51f503,1100mAh,480x800pixels
210,6d349921-3507-43c4-8335-4639f01ee6c4,530mAh,128x96pixels
211,d68ad334-88ed-4ee6-a373-704927495e8b,2440mAh,540x960pixels
212,bd27ce34-9109-40ef-a88c-e2caebc88f4a,650mAh,96x92pixels
213,f31e0276-66fd-463b-9dbf-fd7a35e6a109,7280mAh,800x1280pixels
214,98d69241-7b11-46cf-94c9-8adc28ef1956,970mAh,128x143pixels
215,26744e55-7e27-4192-be27-af96c812fd3e,4000mAh,1080x1920pixels
216,d78a318a-ca96-4bb3-9f9f-90847b105f2a,1500mAh,480x800pixels
217,ab228b40-f692-4662-9986-6d8184dda20b,860mAh,128x160pixels
218,36e1f150-3d83-4d3c-9855-8daf858d8e28,1900mAh,720x1280pixels
219,72ae72f3-e7f0-4f03-b8eb-12e78c77741d,2230mAh,720x1280pixels
220,5d6023ca-e614-49ea-aa61-643d9f7284d7,550mAh,96x92pixels
221,692ce7b7-54ec-422e-b40f-cd9967475263,480mAh,128x128pixels
222,63074efc-388e-4505-b984-5b25a4441299,2300mAh,720x1280pixels
223,4994caee-f0b7-4ce8-a4df-d542ce1d9bda,3500mAh,1440x2560pixels
224,b87da3f8-9a3e-417d-abd7-16329c5be1ba,740mAh,240x320pixels
225,641f3960-72a7-4e2b-be69-8a7539eb50bb,1900mAh,480x854pixels
226,647094ec-04d2-438b-a36f-2942945a6dc0,1200mAh,240x320pixels
227,2b1a78db-aab8-41e1-b8e4-9582c886124b,4000mAh,800x1280pixels
228,5858c342-2d79-4abe-91b4-d794c16b96d1,3315mAh,1080x2280pixels
229,7fd05ca4-ac20-46cf-b4f8-87147eef8d65,800mAh,240x320pixels
230,fe96a096-a0b6-4b20-a332-e11db6c0c7b0,1500mAh,320x480pixels
231,96e21eaa-08e0-4b7b-9cd0-330720891b89,650mAh,101x64pixels
232,9257351d-59f7-481a-86c4-30dea451afa2,800mAh,101x64pixels
233,f91ec34f-a08e-4408-8bb0-592bdd09375c,1000mAh,240x320pixels
234,4296626c-fbb0-42b4-9a50-b6c6c16095f3,1000mAh,128x160pixels
235,09920b2e-4e07-41f7-aca6-47744777a2a7,2800mAh,720x1280pixels
236,39945ad0-57c9-4c28-a69c-532d5d167202,850mAh,320x240pixels
237,1bfbe5c7-6f02-4465-82f1-6083a4b302c0,1100mAh,320x480pixels
238,6d5b3f03-ade6-42f7-969d-acd1f2162332,10307mAh,2048x2732pixels
239,83095a08-2968-4275-a375-4fab404df7ac,3000mAh,720x1280pixels
240,afdd9c41-2762-45bf-b6a7-e3fb8f1b34ba,1130mAh,240x320pixels
241,5dbc7cb7-39c5-4795-9064-d1655d78b3ca,1500mAh,480x800pixels
242,1e58593d-6395-41ca-9fb0-a9607337ce18,1020mAh,128x160pixels
243,b3ac3191-20ee-491c-8a24-42e0889152ef,1500mAh,320x480pixels
244,544c63ea-7c23-41f5-9841-9960ade21c54,5000mAh,1080x2400pixels
245,59b0aeff-c1cc-4d7c-b928-dec5457942e0,6000mAh,720x1640pixels
246,b5daf920-8f69-4603-9ccb-1d7f2b77656e,600mAh,128x160pixels
247,1513d9f0-bb81-4b0c-bab5-20e8ea67c104,2390mAh,540x960pixels
248,5d697560-14a3-4e76-8a3a-5e5c5b5b3353,2000mAh,720x1280pixels
249,5449ebf6-1579-4fdc-8e02-7f631d2cdfbd,880mAh,176x220pixels
250,b2f9ea63-f7d4-4944-84ce-208164326c8e,3000mAh,720x1280pixels
251,4f13bb6a-20f0-4067-a33d-6585b3cd26f2,1400mAh,320x480pixels
252,31eef6b5-781e-4353-a851-d73ff9c22f9a,1785mAh,540x960pixels
253,b740e07e-f890-4ace-8c97-4dc4cf1d173b,1000mAh,176x220pixels
254,5e1679f5-2a52-44be-8453-760bf61d43b4,4000mAh,800x1280pixels
255,c04c5c8e-d946-402a-a751-a3d33c124ccc,650mAh,102x80pixels
256,e3ba411e-c199-4933-a31f-5eb4260baa4a,1050mAh,176x220pixels
257,9cc46ed9-287c-4ce8-bdb5-8e1fed177dd5,850mAh,128x160pixels
258,2dc771b7-69ed-45d4-9a60-ce9f83ac25a4,760mAh,128x160pixels
259,aee3290c-fe89-4606-916f-b59867dbcf04,2000mAh,480x800pixels
260,9e663074-853f-45a4-a950-9419eaff5531,3200mAh,720x1520pixels
261,e093925f-ea8c-4409-a00f-3d725cc463fb,3900mAh,1440x2560pixels
262,460afbac-6cc5-4c84-b0a2-ddce67286e37,820mAh,176x220pixels
263,589823cc-89f2-4bd5-8cab-e89478f530ea,5000mAh,720x1600pixels
264,a228856e-ed94-48e3-9af3-575d20565bde,2400mAh,720x1280pixels
265,5fd9f9b7-e6e4-468d-93b8-fa984f66cde3,1300mAh,320x480pixels
266,4f9e1247-5342-4a79-ae6d-e53d083840a8,3000mAh,720x1440pixels
267,b55e794f-1137-4de2-bcea-806041e080e6,1500mAh,480x800pixels
268,84ab276d-9713-409f-861e-35502d6dc64a,770mAh,128x160pixels
269,4adabef5-293b-42c0-b6d1-1cf853f6391d,3500mAh,800x1280pixels
270,5d37a44b-d121-426e-b528-59e603ba5923,700mAh,320x240pixels
271,53ce7597-bb59-45e0-a3a3-ca3ef6f7ce1c,2150mAh,720x1280pixels
272,468f0798-8c51-4846-b8ee-c9fea3a32cf4,2500mAh,480x800pixels
273,2a372402-5ea1-42cb-b374-0f6c10200fcc,4000mAh,720x1520pixels
274,1dddc877-52ac-480c-b786-2dbd2be70c04,1320mAh,360x640pixels
275,ac099a60-9187-4d4f-97b4-6bdfb14ba521,4700mAh,1080x2400pixels
276,6095dabe-0311-476c-b537-84f6f3dc2d75,3400mAh,1440x2560pixels
277,ec02b332-05a5-40dd-ae9d-2b0672baaa6e,2500mAh,600x1024pixels
278,ef2bc846-fed1-4d6b-a9bb-e50c6961f254,4300mAh,1080x2400pixels
279,62206a61-b821-47ea-be0c-c4fbf57e091e,600mAh,1080x1920pixels
280,fd34b35b-de76-496e-89f1-6ef65969e1a4,2540mAh,720x1280pixels
281,a7aeba8c-1feb-4f9c-94d8-031612c55fb8,830mAh,240x320pixels
282,47707417-48c4-4faa-84ee-a06414d29e46,2000mAh,1080x1920pixels
283,e53a6570-3a3f-4ca8-b6dc-8ff378bca757,900mAh,128x160pixels
284,5c7c00f5-37fa-4fab-95f8-f6982401f762,790mAh,128x160pixels
285,25f47b5f-b4c7-4233-ad13-184da65d9bc8,1000mAh,240x320pixels
286,bc24f94d-c4c3-4378-bf8b-0455ef1aa72b,1250mAh,240x320pixels
287,c0abd282-4bc0-4bbd-936a-9b5ad0c2eeb7,1000mAh,240x320pixels
288,5d6929a4-570d-4eaa-a0c4-4b1aa350add6,2000mAh,600x1024pixels
289,ab704911-0afe-4c60-bf22-134c9e45f6d5,1100mAh,320x240pixels
290,41a12d66-8172-4551-be7d-f575f9d85098,2300mAh,720x1280pixels
291,dd9e97a6-4281-40a5-9048-fde7809623fb,2730mAh,1080x1920pixels
292,2a69de63-48a5-4fcf-b086-4faab06bf63a,1200mAh,320x240pixels
293,1e486998-18ca-4a42-bad5-001aaf7830aa,3000mAh,1080x1920pixels
294,5ff6ab61-2296-418b-b09f-ea92e17f7bec,4000mAh,720x1560pixels
295,4bcb9dea-5dc0-41b4-b086-382ea577ac96,650mAh,124x64pixels
296,9bc87696-e9bd-4241-86b0-234e054a607b,3800mAh,768x1024pixels
297,55988ddb-e48f-4cb0-9474-93c4abba4f0f,4220mAh,1080x2460pixels
298,1395fa7c-cceb-4ed2-a0dc-16500c639165,800mAh,176x220pixels
299,b889fa0e-bbba-4e93-a41e-eff046a14073,1500mAh,240x320pixels
300,7ef35f21-5d7d-4608-a3ea-63252c3ceaeb,2500mAh,720x1280pixels
301,999aaf19-41f9-4de6-913d-ff01ddcec556,1500mAh,320x480pixels
302,bd1c42ea-cf80-4bb0-9bab-847789889991,850mAh,176x220pixels
303,326a1ec5-9de2-4acb-920a-2b38df25aeb1,1240mAh,400x240pixels
304,40b1b91a-d1ff-40cf-8ea6-cea00103c8c7,3500mAh,600x1280pixels
305,8d23133d-113b-4798-a714-5418302835f0,3120mAh,1080x2244pixels
306,5b6eb862-f3a9-4b2c-8981-50a604ca676c,1830mAh,480x854pixels
307,65439d96-79d7-41e2-bea7-6e98c0f204c0,750mAh,128x160pixels
308,f899a4fd-832d-4820-b651-31f0d252525a,1900mAh,540x960pixels
309,6111cec6-00e3-41ac-954d-59d175975492,960mAh,240x320pixels
310,52f04147-c46e-452c-8e26-21c089cea285,1020mAh,240x320pixels
311,e2397f59-12e5-454a-99c8-99cd5fe86e44,5500mAh,1080x2340pixels
312,8fbe091c-f73c-4727-8fe7-d27eabd17bea,980mAh,240x320pixels
313,0ea1ce23-a279-407d-a68a-86c8b3e83f79,600mAh,128x64pixels
314,e0134f0e-a7ae-4349-a52c-f1f02139a79e,4000mAh,720x1280pixels
315,35d4970e-cd3d-4f69-9754-15c8765793d6,600mAh,128x128pixels
316,c05e4501-6048-4d1d-80b1-b80ea841bc39,920mAh,176x220pixels
317,7c0b9b63-33ae-409c-b5f5-d5aa020a4344,1170mAh,480x800pixels
318,536b9388-bafb-432d-9085-ad4af01edd6f,2500mAh,1080x1920pixels
319,5156955f-dda2-4e19-831e-752c92bd8f85,2500mAh,720x1280pixels
320,5dd5e235-4d2e-432b-a1b9-8e738dc8aa3a,680mAh,128x128pixels
321,050f28e4-376d-474b-b2d0-0b62c751e85d,5000mAh,720x1280pixels
322,b803aff7-6e4b-4beb-8d1d-dc7fe609274d,4500mAh,1176x2400pixels
323,51de6572-fb70-4e41-8150-c107fd4a2763,580mAh,100x160pixels
324,3b145528-d5fc-4c2a-b2a5-e119128caa5f,1400mAh,480x800pixels
325,a7aa9dc9-5066-4cb9-a111-abd793a48cff,3300mAh,1080x2636pixels
326,f440b3d5-5ac4-4371-9c82-574c9cdc52b9,1500mAh,480x854pixels
327,94ff973a-3b0a-48d0-a182-c3abba01d61e,1500mAh,480x800pixels
328,1cd4ec2e-4786-47f7-92f4-6d44db0cff2c,1400mAh,176x220pixels
329,b884792f-6c44-478e-ae0b-eae89f284f3b,1000mAh,220x176pixels
330,8fb0eebc-972c-4934-ad7d-1405c2d41640,3150mAh,720x1280pixels
331,329a1a85-57dd-48c4-a00a-c5e7f6e9ea12,3000mAh,1080x2160pixels
332,9b37c048-ae78-4095-9c27-5be95dbf5e3f,720mAh,128x160pixels
333,ea27628a-e7a4-4383-a13b-71c32ddeee1c,2780mAh,480x800pixels
334,50b8092d-7f72-4fca-924f-1a953570cece,650mAh,128x160pixels
335,523e5820-3024-4915-8d92-e191f68dee7f,3000mAh,1440x2560pixels
336,89661620-49e0-49f7-9da3-a840e0e17c3b,750mAh,144x176pixels
337,27fe9aad-51d5-4be2-99a5-24c45caf4b55,1500mAh,480x800pixels
338,22b5146f-385d-4f6c-bc8c-8f31cf53f7c9,600mAh,240x320pixels
339,cab4ea76-47e6-4ffe-80dc-ab14f3613547,2000mAh,480x854pixels
340,e780c3e7-9c9c-4b54-87ad-8bde1b837dd8,700mAh,128x160pixels
341,807e17f3-5daf-41c3-a07f-dbf6d48af7d9,2200mAh,480x854pixels
342,49b89871-5fe7-4898-b99d-953e15fb42b2,910mAh,240x320pixels
343,8a94535e-4638-43ed-ab9a-2ac90849a98b,720mAh,128x160pixels
344,83114893-a0bc-414c-b120-1c5ca8a35de4,1500mAh,480x800pixels
345,32f6910e-bb8f-4cd4-8bf5-96e96f50bc66,590mAh,368x448pixels
346,28798011-16bb-4213-aac0-92cc362446f9,9720mAh,2048x2732pixels
347,bc0e3c9e-be64-438c-a740-8992793f81cb,1440mAh,320x480pixels
348,2a44c312-f951-4c8a-a77d-bf379a5e80cb,600mAh,240x260pixels
349,97740b47-e9e9-4b5e-9159-4a73b2c64270,600mAh,96x64pixels
350,6fb0d1b7-6bff-44c6-b053-66d622642332,3300mAh,540x960pixels
351,2ee15139-8dfe-4a7d-a114-ceaa1e283009,2500mAh,720x1280pixels
352,095c73c4-fa7d-4910-ac92-e7289058d9c6,4000mAh,600x1024pixels
353,36110e9f-8947-4dff-8c37-070f134ce98d,1560mAh,640x1136pixels
354,26b2bda2-9397-4d0c-b5bb-9190dbba3acb,3450mAh,1080x1920pixels
355,78ff9037-31ba-447f-9669-5f7a08b8e905,1000mAh,176x220pixels
356,133a1dbe-fbdd-4127-b456-f9ed790c5192,3000mAh,720x1480pixels
357,48c9f12f-a9c3-4c71-a537-1c478a0e16e0,4000mAh,1080x1920pixels
358,2a06c3e0-e349-496b-a549-da1b61a50b7a,800mAh,128x128pixels
359,3f916af8-c7fb-4b86-a442-746e01cfe96f,3340mAh,1080x2160pixels
360,fe52b818-4912-4b08-afe5-76a6f7001d2c,2100mAh,720x1280pixels
361,b3e617ef-2757-410b-a997-f2cd2006f770,2000mAh,540x960pixels
362,e0902ea2-9c81-4049-b933-aedf709911a1,1530mAh,240x320pixels
363,ba461048-048b-473b-a7d6-5ff9e02da8d5,2600mAh,720x1280pixels
364,1d152012-c60b-4049-845b-9a80310e0d4a,2450mAh,1080x1920pixels
365,d184be83-f8ff-4da0-b4d1-3294a8ff3b22,1000mAh,96x92pixels
366,5ccbf994-ff21-47b9-a935-a6e077568c2d,4500mAh,800x1280pixels
367,6e329907-dc47-4dc8-982c-6ff32616551f,700mAh,128x160pixels
368,5b3b7662-c6b6-4b5a-b07c-4a55b417b071,4000mAh,600x1024pixels
369,2fef172f-0e5a-4376-b890-215f016bc6ed,4200mAh,1080x2400pixels
370,ecc45e4c-9249-4b06-9f99-aa068eebddf4,7040mAh,1600x2560pixels
371,46f41ff2-be3d-4632-b51c-75443fa19f5a,750mAh,128x220pixels
372,80770bac-b4c9-4e5c-afa9-42a0815f77a7,720mAh,128x128pixels
373,92067f9f-5a9d-42c3-9aad-4e6d9c4f596a,3550mAh,1080x2248pixels
374,cbac7097-59a4-4152-b304-08b778177d63,2500mAh,480x854pixels
375,c42cfabf-8978-4936-b71a-c15c7e62058f,800mAh,128x160pixels
376,f737b57f-eba4-4012-965f-e2b55a0a08c7,4500mAh,1080x2400pixels
377,97ea93f8-fd1c-4ee5-8081-24080139f9b1,2227mAh,1080x2340pixels
378,540fdc40-a457-46e9-8b10-14e0a2f3ed33,600mAh,97x59pixels
379,89c4eeb4-c146-4434-a9f1-6943b4b552dc,2430mAh,720x1280pixels
380,f7d6519f-eba5-4b05-945c-a861d580c99b,3425mAh,1080x2280pixels
381,8c619c95-5f66-4433-93b6-2c1bf90e565c,650mAh,128x128pixels
382,6ff800e7-a515-441e-b7e0-27b30cfff06d,800mAh,128x128pixels
383,e89c9268-7e07-459a-8596-76f69451e563,1830mAh,720x1280pixels
384,e1d2ec50-2970-43be-aeb7-fc90779086b7,1390mAh,320x480pixels
385,110f2a06-e151-4f79-9acb-8b8ce97ca449,1200mAh,320x480pixels
386,a128e480-4b47-4143-bea7-db14706b38cc,1800mAh,720x1280pixels
387,17b69fda-f8a8-4523-9181-3e3e65887a97,3500mAh,1440x2560pixels
388,88d2eee9-2791-4cd7-b768-a08b6b590d38,740mAh,240x320pixels
389,d997e27d-a2ce-41b7-b10b-75cf61585575,1700mAh,480x854pixels
390,4fb43233-e562-4c34-a287-dbdb3cdd74e7,860mAh,240x320pixels
391,766b6412-c63e-44de-b1ec-a457ca39d48d,600mAh,128x160pixels
392,e61f8a6c-2bb6-4ccc-bb2c-c0a9ea17f750,1400mAh,320x480pixels
393,b3ad661c-3fc2-43e9-83d2-ea2003e685e1,1900mAh,480x854pixels
394,993eff81-70a8-4d5b-9307-bd8c272a2a6c,3550mAh,600x1024pixels
395,930c9cb4-8b31-4fe8-a9b0-04622b80fbfc,4000mAh,720x1440pixels
396,d805e752-3621-4844-a38d-f0c247f5036b,4015mAh,1080x2400pixels
397,63f27bb8-d14f-471b-b317-6c3d43bd128e,1450mAh,480x854pixels
398,2a5c2db3-ef32-4f77-ad19-f2d0dc89f779,1660mAh,128x160pixels
399,c9ff5b53-f57c-4bca-95ef-456d957073cd,930mAh,240x320pixels
400,5b53ab8d-701c-4139-bdab-dc457e546157,720mAh,96x64pixels
401,59f4a91d-4add-4979-b463-42f77b37bd37,1600mAh,480x854pixels
402,77a73995-ee61-4793-b48c-f9e1125fbce4,1350mAh,320x480pixels
403,bb17aef4-a862-4f3f-bf77-fd2721743698,3750mAh,1080x2340pixels
404,2d9dfb7e-23c1-49d3-a900-cf95a9c740a2,1530mAh,128x160pixels
405,59ce8372-1bbe-4c53-9913-e3ca5584a055,2800mAh,600x1024pixels
406,24aaee70-31f1-4084-ba20-3b843284b634,1300mAh,240x320pixels
407,630afa5c-6c7b-4c22-b002-90b5beae3696,2460mAh,480x800pixels
408,c7a27dcc-dbed-4953-b4d4-4d1c3e0a5f40,2620mAh,720x1280pixels
409,629a89c1-8cd2-4629-93ab-85a3502a050f,2100mAh,720x1280pixels
410,ce6ab068-bb20-477e-b8d6-7eca3f5b6575,1150mAh,320x400pixels
411,59bb3cc4-9757-49a0-ac62-8c0afe105a3d,4000mAh,800x1280pixels
412,28ae4b79-78e1-42ed-95a1-38fb306144b2,1350mAh,320x480pixels
413,ffcc4cc8-a094-49ea-b9f2-8bf056261868,700mAh,124x64pixels
414,19088866-7d6d-4429-b047-6686cb9540a7,3200mAh,720x1280pixels
415,0712d739-d058-414e-b905-703eaaa3d3ca,600mAh,480x800pixels
416,a2e205a9-e620-47b7-a978-f8655e672d26,950mAh,400x240pixels
417,421fa982-eff0-437c-896d-da63ae441b2e,800mAh,240x320pixels
418,94710642-7b99-4d19-b637-6c445b3e3e1d,1750mAh,480x854pixels
419,a5760d6e-84c0-43e3-a262-a251ac0b8376,4500mAh,1080x2400pixels
420,5d926c34-3aca-40c3-9199-603c6717ea37,1000mAh,128x160pixels
421,7c982760-c605-4e7c-ad2d-d1e24228be70,2000mAh,480x800pixels
422,f2658d49-665b-433f-b48c-a1761d3de63c,1450mAh,480x800pixels
423,be9b69b4-4677-4484-a88a-24e29c52a46b,4500mAh,2200x2480pixels
424,f2236678-186e-4b87-af20-b7a59cfd8551,1500mAh,320x480pixels
425,1613bd0b-5be5-4d26-bdc7-e68068c38847,1560mAh,480x800pixels
426,d5f830bd-8c49-4bc2-85ba-3d120c90caa6,830mAh,240x320pixels
427,e9564c87-1af5-49d0-8ef2-4522e6d0f2c6,2000mAh,540x960pixels
428,b44343a2-6f82-41b1-b052-52e63b6ad844,860mAh,128x128pixels
429,aa67955f-aea0-48e5-b819-5eae313d949f,2300mAh,720x1280pixels
430,8482ba2e-0ba9-46a7-97b0-0a992f10d1b1,1660mAh,320x240pixels
431,61697f16-9198-4d1a-89a5-e43386c2b759,800mAh,176x220pixels
432,94956686-1a12-477b-a67b-fbdbeded7a0b,600mAh,240x320pixels
433,ad9b2dfd-2967-4242-80b8-86f253d9d113,2250mAh,720x1280pixels
434,2a14378c-afe8-47bb-9c7b-22c620d81c3f,3500mAh,1080x2340pixels
435,d5c6f4d1-08af-4013-b765-df05fe9d35b7,2000mAh,720x1280pixels
436,045324c6-7df9-4ce7-9688-d352a6d73e02,900mAh,480x640pixels
437,85ebb1fc-8e6f-4f21-a48c-449135f378a9,1000mAh,176x220pixels
438,9c1dc656-48fb-4fd2-86b5-04da58eed610,1400mAh,480x800pixels
439,e30ac0a3-8fbc-446a-a97c-4efff7c00c54,1540mAh,240x320pixels
440,20fb1207-9bb2-4e68-9d86-b0368d55c82f,2850mAh,1080x1920pixels
441,610d0b43-fbc2-481c-b2cb-570a4f8c214c,1400mAh,480x800pixels
442,36cfd856-dd30-46a9-8654-1f1de77e674a,1100mAh,320x480pixels
443,3fb35e00-d584-4d1c-a8de-eb7af9ca9efb,2000mAh,240x320pixels
444,168b7d52-7dbf-4f73-987b-d0fe181f778a,1650mAh,480x800pixels
445,49f48b44-2a8e-4922-b2ff-2ff8c52b43f3,2500mAh,720x1280pixels
446,f7c1d04c-3076-4389-b06a-91993c983777,3500mAh,1080x2340pixels
447,9a66adca-22dc-4e13-bf61-ceb1f5fffcb6,4500mAh,1080x2340pixels
448,d23ef17b-f59c-4f8e-959f-be8faef2ac9a,600mAh,240x400pixels
449,904c8357-455b-48d1-84ef-2e28325a721b,970mAh,240x320pixels
450,034b627d-f91e-494f-94dd-7cf7b6f8edf4,2000mAh,540x960pixels
451,54b32288-cfad-4422-9ed2-4f852c178469,500mAh,96x64pixels
452,4c9184ea-2127-4db8-ab87-c966af888b5e,700mAh,176x220pixels
453,6e6edeb5-1400-416c-bd4c-e3b5f427993c,700mAh,128x128pixels
454,8f2daabd-cfb4-48a5-879a-ce4a2a9d922e,5100mAh,720x1600pixels
455,6c9e5a95-da20-41d7-acbe-5a66d02a3488,860mAh,96x64pixels
456,274758fa-fd8a-4b25-b87f-fa6b56ef9f48,650mAh,128x128pixels
457,afba8eed-c114-422f-8960-13f90d2657ff,800mAh,128x128pixels
458,c9864541-b1a9-45a5-9304-e6782843a9c1,2500mAh,480x800pixels
459,881659ef-117e-4109-b6b9-34758cce38c8,940mAh,220x176pixels
460,84dc124a-699d-433a-a828-5e32044c8945,1400mAh,320x480pixels
461,fc3e1166-082b-4924-a9a9-2e1b5eb6e386,1000mAh,240x320pixels
462,8a740ed4-b238-4131-b654-1e031c1ae7c6,1200mAh,320x480pixels
463,54fbab52-7f34-44a3-8de2-e9e53fb1b230,950mAh,128x160pixels
464,c4b0c69d-313e-42e3-8c9d-5965020b29e4,8600mAh,1600x2560pixels
465,b15d24d5-8551-477b-bcfa-70aa9e78538a,1700mAh,480x854pixels
466,b7f5028e-4089-4ed8-8167-d12b3a761b88,1700mAh,480x854pixels
467,21d122cd-450e-4bdd-9568-776cdfef438d,1000mAh,320x480pixels
468,ca25b000-2e61-4d1d-b4f5-02263bb3e93f,1300mAh,240x400pixels
469,2adca223-bbf0-46d4-9f4a-72666293b174,4000mAh,720x1600pixels
470,afd62b60-3596-47cd-a61f-1e53a0c2a8da,2400mAh,720x1280pixels
471,072f2cf7-33e8-4c74-9406-2c1fc21b3168,4000mAh,1080x2400pixels
472,b5e00890-da2d-4a3e-8bce-b4ca1a0320dc,900mAh,240x320pixels
473,7397bcf5-06c0-4aee-922f-8d111c10e090,2000mAh,480x960pixels
474,5cf1825f-b9e9-4168-a4a7-ac516733417c,600mAh,176x220pixels
475,9802c245-7bca-4541-b68e-008df7673639,2500mAh,720x1280pixels
476,7e0e0e1f-9798-4f20-843f-df9a1ae2d878,4500mAh,1440x3088pixels
477,9984a34c-7dc6-4126-85a2-597c9c4ed9d3,670mAh,128x128pixels
478,101e4a54-17d9-4e51-a6fa-53bc5abc141a,1050mAh,240x400pixels
479,32bc7c48-685e-4029-809e-6cfee53a83e9,2500mAh,720x1280pixels
480,56008ed5-8ead-40fa-829f-73eba95b1c03,3510mAh,1080x1920pixels
481,7aba3399-b868-4dad-a2fd-05c170aa4232,670mAh,128x160pixels
482,059bd8bd-e3ac-423b-9b2d-0743589ba39b,2000mAh,480x854pixels
483,36543d2c-e485-4822-9dfa-ee0fc4b2db0e,1620mAh,640x480pixels
484,fb25a396-0a15-4a43-816c-ba79cad09621,4000mAh,1080x2400pixels
485,f39a1cf9-00cb-4d41-98f2-a429e03dfc73,600mAh,96x72pixels
486,94919e8d-b57e-41a1-9f38-967a2eca2b82,1020mAh,128x160pixels
487,6d1e04fb-e960-43c3-9709-d83e19007cda,1200mAh,240x320pixels
488,56d219a5-8175-49f1-ba5f-a820d1804fff,1000mAh,240x400pixels
489,1951816e-085f-4f7b-8ff4-15b66ee689e7,640mAh,128x160pixels
490,e7af1dbd-4ab2-4201-b70f-1a52e4ea9250,3700mAh,1080x2340pixels
491,e1105a38-cf8f-4bbf-a1de-968b94b22b80,750mAh,128x160pixels
492,58e30b36-a90a-44e6-8d3c-7e613106e492,5000mAh,720x1280pixels
493,d67133ab-0d9d-4de5-b68e-56416fa8d82a,530mAh,128x96pixels
494,23226ca8-a535-4dd6-a7a8-a68c0200d2a3,1500mAh,480x800pixels
495,47134a61-d2cb-45f9-8016-7a1063250cce,2050mAh,480x800pixels
496,bcf8e7ab-0886-4892-8756-d8e30d3f452f,3500mAh,600x1024pixels
497,2c20c3cd-3aa7-4882-a621-32c38fb20294,710mAh,128x128pixels
498,e3be2ea9-6d88-43be-aa1b-9d498c67ce26,1000mAh,128x128pixels
499,ba131f5c-e3c7-4617-acbd-22c561c7cf97,5000mAh,1080x2400pixels
500,ab933e15-631e-4158-b534-a29e451006c8,1800mAh,720x1280pixels
501,cfd9119f-ee29-4bc5-a08d-a58f471e7c73,5000mAh,720x1280pixels
502,53c51962-3546-4c9c-b88e-fe287c94782f,2300mAh,720x1280pixels
503,79547d73-7092-48cb-98c4-f6024594d115,2000mAh,480x854pixels
504,ec81f2e5-2ffb-4b28-8b88-7c70a5db0cef,1600mAh,240x320pixels
505,5cb18925-3a3c-4867-8f1c-46efd7eba067,1500mAh,480x800pixels
506,700914b6-ae23-4e10-9329-896ba6526ce4,800mAh,176x220pixels
507,494d3480-3c7d-448e-8d3b-834b06fff156,2000mAh,720x1280pixels
508,f15ccac9-1057-4c0e-b06c-d52c853723e3,780mAh,240x320pixels
509,9a393431-2a27-4bb5-97fd-74ab904cec03,3000mAh,720x1440pixels
510,bbd547fb-f10a-4cce-adbc-9f72631330ac,1530mAh,240x320pixels
511,0bb3928f-adff-452e-97d8-b199b14d134f,950mAh,240x320pixels
512,b46e1a7f-6df6-42ab-a464-101078f00e11,4025mAh,1080x2400pixels
513,85c80e2b-5eff-4307-9900-1d4395672eb2,3010mAh,720x1280pixels
514,b51bd298-43b7-49e2-852d-de8c1aff6724,600mAh,1600x900pixels
515,6b93d149-38a1-459b-8ef5-01490f14cb48,2658mAh,1125x2436pixels
516,c50abd81-e526-45b8-aca8-296abf01699a,4000mAh,1080x2280pixels
517,42e45568-7020-4bd3-983d-5c30f454c089,600mAh,128x160pixels
518,34ef7f57-ed89-4708-809b-fe6ba43c5af0,4000mAh,720x1280pixels
519,b7e41a09-36da-4ed1-9f91-a517437bec7f,3500mAh,540x960pixels
520,a8234c1a-de42-4e7a-93fb-105a1c28a6a0,1800mAh,480x854pixels
521,254ade27-c83e-4359-b8a6-2721a6257817,1000mAh,128x128pixels
522,10a4840b-ecaa-477d-bdba-332d4f2c6f36,4000mAh,1080x1920pixels
523,dbaca5e0-48e9-41d5-8c8a-4a9ff1aebdc7,650mAh,128x128pixels
524,2da1845a-7577-4103-872f-f9df131441e9,3800mAh,800x1280pixels
525,06acd586-2c90-486f-9a26-75ce1205e25f,3100mAh,1080x1920pixels
526,1ea9439f-dff5-41cf-aac3-718a6b4e7af6,1800mAh,480x854pixels
527,fee00f2f-e2cf-466f-86e9-f67d0c1ec26c,1100mAh,240x320pixels
528,0b7cbd19-b968-47c5-87c8-e0f34b001e6e,2500mAh,720x1280pixels
529,31efcfea-47d6-43f3-97f7-2704a5397e22,3080mAh,1024x480pixels
530,b40ff760-cc65-40a4-af7c-4a57282b2b16,1000mAh,208x320pixels
531,f9339b98-c08c-4264-8239-804abdb54eb0,2600mAh,720x1440pixels
532,d905224e-a5e2-4405-adbe-759c4b8cfd58,770mAh,128x160pixels
533,0f4a0199-9ad9-422a-9bca-868723b659a9,600mAh,480x800pixels
534,3b3193de-6fa5-43e1-a322-50cf043d9480,800mAh,128x128pixels
535,ebee2ea6-fdc1-4d94-a9ac-b05f328e7ddb,2000mAh,720x1280pixels
536,7379e619-8221-441b-8bd4-d411256fa27a,1000mAh,240x320pixels
537,f9456fda-e693-4046-a73f-64c9bedddad7,500mAh,124x64pixels
538,d27f4e83-4730-4075-b5c5-766b1a732fe9,2600mAh,720x1280pixels
539,e4db0751-f3a1-465f-bd2a-e0773d36e7fe,1340mAh,480x640pixels
540,47a6ceba-b467-43cb-aac8-b9eb95e3740a,5000mAh,720x1600pixels
541,30ec1f80-71e1-45f7-97d5-97150daea152,800mAh,128x160pixels
542,482322a0-528b-40e4-bb07-8e941a3ef0f6,770mAh,240x320pixels
543,5dea207e-839d-4dd5-8712-6d1a43c292ac,3000mAh,1080x2220pixels
544,2d2d8ec8-4806-42a7-b8ba-ceb15c1c7e84,3000mAh,720x1480pixels
545,1dc3d734-68f7-420c-8945-d15fe12ba3c9,4500mAh,1024x768pixels
546,4078d187-f4ac-407a-92d8-df4bc3c7d961,5000mAh,720x1600pixels
547,baa6a74a-015f-41dd-8dd8-bdfc8dc1918a,1600mAh,480x800pixels
548,5575bf17-daa4-4a77-ba68-a859863d6a7d,1500mAh,480x800pixels
549,bade7609-f412-45cf-9e85-8ce84ed261fd,1000mAh,220x176pixels
550,2ed4b6f8-5d37-480e-9469-4ea26f475716,1020mAh,240x320pixels
551,e06f53cd-7776-41ce-9f7a-a88986192e24,860mAh,240x320pixels
552,d3eafff1-ac2f-4cc9-b9f2-90d400bff145,1500mAh,480x800pixels
553,5807df68-f455-4ba8-b5ef-1e7c4d76e46c,600mAh,1668x2388pixels
554,48941756-e6c4-4b45-a869-c4f33daccdeb,4300mAh,1080x2400pixels
555,c92cda0f-65b3-4203-b229-52c222e872de,500mAh,128x160pixels
556,d3da14c2-6405-4f68-8bbc-cbce512e5d75,1230mAh,480x800pixels
557,ab6462b7-2061-42ba-a19f-a1efc877d800,4000mAh,768x1024pixels
558,8e989c18-feb7-4f98-98ea-cb385538c1cd,1300mAh,320x480pixels
559,95677239-43cc-44e4-a97f-4a9c072210ae,1900mAh,480x854pixels
560,5de6e270-2929-42e6-988f-54f5f2d19a6f,2400mAh,720x1280pixels
561,c54d3f55-35b8-47c6-9771-a573aa00f4ad,3620mAh,1080x1920pixels
562,8822ca00-724c-4eaa-a905-eebb49a38ffe,3050mAh,1080x1920pixels
563,b455a03d-a326-4d34-b45b-c2d44ae46dc6,1000mAh,240x320pixels
564,dfb69542-c032-4c9a-bc06-ddd6282fbe37,2300mAh,720x1280pixels
565,3e766c14-75f3-4b25-8808-32b97393434b,1020mAh,240x320pixels
566,5b8e7e76-98ec-48bc-9afd-b84bb8cacfe5,600mAh,100x160pixels
567,21f1a41e-ce2f-4cf5-9aee-e81e9b79c814,5000mAh,1080x2246pixels
568,3648ad78-08f6-421e-a025-999f4bdc8fa7,4500mAh,1080x2256pixels
569,d725a542-ddaf-4e1c-a2fb-10628a6e1407,500mAh,128x128pixels
570,1ddc59b3-7f01-4039-8f07-21a30362ab75,1500mAh,320x480pixels
571,f9ce4c4d-dd69-46b2-8bc4-4226f0c7b567,1420mAh,480x854pixels
572,d668cd83-23a5-4174-9bd1-089054fbf1f7,2300mAh,720x1280pixels
573,50e7e081-20a5-4777-871a-ae671932333a,900mAh,240x320pixels
574,180575fc-ef84-48fc-a83f-067d50141221,770mAh,176x220pixels
575,1fd2dbd0-c0a4-40f7-b7f7-94c0d94a751d,1821mAh,750x1334pixels
576,d6bac42e-c8c5-4e7b-8362-254e6d9d5d19,1540mAh,240x320pixels
577,489dee3d-6abf-4470-bb94-8b9c0d12f18e,2000mAh,540x960pixels
578,d0cb72b7-f819-432e-8492-9bc8b7692043,1800mAh,720x1280pixels
579,8ab1ac5c-2c08-4ca9-a670-3c899043080e,1050mAh,220x176pixels
580,506d2ab9-b0b7-4180-bc21-f44909722def,1500mAh,320x480pixels
581,b842b868-4117-4254-aa1c-be43b05abb87,2580mAh,600x1024pixels
582,c778bc2b-67c4-45d3-ba2d-3d91f7744f15,600mAh,320x360pixels
583,4e2f66a8-6378-4792-800d-d781922da189,800mAh,128x128pixels
584,75cb828e-ccc5-41ff-9bdd-9ac3dc7740aa,1400mAh,480x800pixels
585,0121f086-4d27-4bbb-bd44-a90b34d86983,1500mAh,320x480pixels
586,12f97970-a5e7-4659-8f24-9f77bb45cd0e,2800mAh,720x1280pixels
587,e9c299d3-f657-448f-85cd-8cda432a59b8,4000mAh,1080x2340pixels
588,ce8ac6db-1e73-4a0e-ae3c-0f21c6e86ae7,950mAh,176x220pixels
589,82148184-2e41-471b-a0d7-e58caa2333e9,2400mAh,240x320pixels
590,3a4608cb-949b-4fc6-8e78-2e7011a31aa8,1700mAh,480x854pixels
591,a4fcaa1c-4195-4cf2-a86d-eff58b630fb6,1730mAh,540x960pixels
592,1fe3c843-a6b6-432c-8565-456e964543ac,5100mAh,800x1280pixels
593,6d9480ff-36c6-4ece-a685-f7b55958b57b,900mAh,240x260pixels
594,f75f7df9-3ccd-4f27-bcdc-4657e5898740,1200mAh,360x640pixels
595,c40c054e-75b2-4af7-985e-20a2538a8180,3000mAh,1080x1920pixels
596,3fbbba10-1b89-40c2-909b-4933db1c0811,600mAh,96x92pixels
597,cfe2daa9-3b76-45c9-9d36-2d11472f4005,3500mAh,720x1520pixels
598,bf6d4e9d-c20f-4614-bce3-b44d4e17424d,650mAh,124x64pixels
599,0f441f90-99f3-49ee-bd56-599bc12536da,3000mAh,720x1280pixels
600,7c22fb4f-8c14-4479-8e02-0fd787084c63,5124mAh,1536x2048pixels
601,180cec7c-7dd5-4ad5-a609-42d39a33479e,1350mAh,480x800pixels
602,9f4faccf-39f6-4ee8-9ec9-5f818c8e7452,1000mAh,240x320pixels
603,b6296602-fa74-4b2c-94d4-e6a67d7aaac9,950mAh,120x160pixels
604,2a0a5c7b-ca68-4abf-9798-18ffb706832b,4000mAh,540x960pixels
605,43dbbd80-b7f7-44c0-a942-e144006cc020,3000mAh,1440x2560pixels
606,546bdb90-945a-48e8-84c7-557f8c48a032,830mAh,128x128pixels
607,a45b6432-7a7a-4938-a039-2ac723f30952,1500mAh,320x480pixels
608,a4da2349-049f-45dd-be64-9795808ce393,2000mAh,720x1280pixels
609,707af6c9-d718-4376-a854-476392d64536,600mAh,124x64pixels
610,6a6eeb15-c5bf-4471-9c29-7b443e6c6d68,600mAh,320x240pixels
611,60254fb3-3856-4509-ba00-b5a131789055,3000mAh,1440x3120pixels
612,9dbf7c1a-3936-42ee-8c36-a28e94a35265,800mAh,240x320pixels
613,4daf5ac5-2aa9-42df-b6da-895ba09e9012,600mAh,454x454pixels
614,7673321f-6042-4ad7-bc1d-4471ee1dcd1b,1250mAh,480x800pixels
615,e0eb7d76-8306-40c0-aba0-31c68161fddb,2150mAh,720x1280pixels
616,5e674500-b9b8-4e32-8e81-66f077898277,2200mAh,720x1280pixels
617,6c85503d-9803-411c-b421-a4c768734b09,1300mAh,176x220pixels
618,0dcd0570-c2df-43c8-9784-feab4ec2dc6b,800mAh,176x220pixels
619,124eb5d1-ebd0-46a8-b753-8995a32e0ff4,1440mAh,240x320pixels
620,f8834f5f-4017-4da0-98d6-3c8985cbc7f5,1550mAh,240x320pixels
621,aad3e9c2-a21c-42cf-b477-466da2a0a32b,550mAh,101x33pixels
622,7a373422-fc33-4e71-959f-99998d0b7686,950mAh,240x320pixels
623,4434a6d2-bcdd-43f9-b910-26d926ec7c34,1500mAh,240x320pixels
624,946437d2-1462-4b8e-81fb-e637f47ae824,2780mAh,480x800pixels
625,fe7064d5-c536-4a97-931e-f4509a91b84c,2000mAh,720x1280pixels
626,fda46669-e13c-4268-abf6-75a8bad23b47,3760mAh,1440x2560pixels
627,ded6d577-4fc3-44e1-9cde-d01d6d2f4c7c,2500mAh,720x1280pixels
628,2d2ea623-ed58-46bb-a95c-c932546c124e,380mAh,360x360pixels
629,b874dde3-1102-46a9-8a6c-28981ac151a8,4080mAh,1440x2560pixels
630,75917ca3-d96d-49c9-b99a-60baac872b7a,5000mAh,720x1600pixels
631,5730d368-9c6d-48b4-ad27-c180e486621c,700mAh,96x68pixels
632,311a58ac-0a23-4b31-a246-fa5f017eef71,680mAh,208x320pixels
633,3bde584c-b3eb-4d16-94d9-112799670674,1000mAh,176x220pixels
634,87603f27-7e5a-441e-95f6-ee33878695da,1500mAh,480x854pixels
635,36b358a0-8525-4d15-87a1-c040b23ba9a3,1500mAh,480x800pixels
636,5dcabfe7-c137-4884-a78f-15bd313ec491,2100mAh,768x1280pixels
637,043ae9af-556e-4ac9-b2ce-9c97071d4d08,3000mAh,1080x1920pixels
638,d69281f1-1e9d-44b4-ab42-5fa8a3273ffc,750mAh,176x220pixels
639,3bf93647-1742-4355-9d23-a7a3068012c7,600mAh,96x72pixels
640,c26e6166-6609-4e61-a674-3e58b6dfc7fc,6700mAh,1536x2048pixels
641,db3c71cc-6d04-4559-bafc-449a20029244,1700mAh,480x800pixels
642,c02e9ebe-eb65-4a03-9078-e4faf330ddd0,5000mAh,720x1600pixels
643,86a3fc89-b3d4-4bbc-b168-696de7871ac9,600mAh,854x480pixels
644,d4abbe9b-19dc-46d7-9ec7-1178f1df276a,9500mAh,2560x1600pixels
645,59924a8d-3168-4a39-80f2-0d94283fd6d5,4300mAh,1080x2400pixels
646,4ea4ab51-cec5-4908-a95e-9529244cc050,1800mAh,240x320pixels
647,e68f274b-2103-4f87-9a97-ac6f1cb5a475,2691mAh,1080x1920pixels
648,7da40dc7-cacd-437c-90f0-6d72ae9c9472,1100mAh,320x480pixels
649,335cb058-b670-42d0-89a8-305fe91291cf,3500mAh,720x1440pixels
650,ff47435d-97d2-4d05-b3e8-294d4c47cbc3,2200mAh,720x1280pixels
651,7c859d38-407a-4b5f-8125-c901bd3f5562,1800mAh,480x800pixels
652,8ef26e52-1e2a-4fb1-bcaf-3e65ee8c275b,1440mAh,176x220pixels
653,e76b9772-afa5-4846-b2fb-057d810a364e,3000mAh,1080x2246pixels
654,448bac96-2ade-4410-9632-e208c456fcf7,1150mAh,320x240pixels
655,57a3d53a-96d8-4f48-8fb4-5bff6e461a64,720mAh,132x176pixels
656,2a49853d-f818-4a46-8008-6ee9ef256809,650mAh,128x128pixels
657,e99c24df-ebe9-429e-8c69-cd80132b87b3,1700mAh,480x854pixels
658,be14695b-f8cb-46b8-aecd-ef28f0218514,1100mAh,176x220pixels
659,f8be29dd-e553-4d5b-9a8f-88c87c348061,1000mAh,240x320pixels
660,c8312844-248a-4a07-96a1-4c02cb1e2471,920mAh,128x128pixels
661,06c5b78d-d957-411c-902c-ab0d0110cca0,2900mAh,1080x1920pixels
662,1dcab6d3-e5df-41f5-bf91-ef2872c14271,600mAh,176x220pixels
663,74bfdb16-4ddd-41c0-b945-9df6632163d6,1390mAh,480x854pixels
664,4f566f59-4400-437a-803e-88f81b303eec,900mAh,240x320pixels
665,ea26b793-5078-4e8c-8fed-7fdcde4fc559,1800mAh,320x320pixels
666,8ec70df0-0924-4749-9c23-6deddada2f5e,3000mAh,720x1440pixels
667,44808231-a5a2-4de8-8cd1-724becb8455d,1530mAh,240x400pixels
668,baa15dc9-30dc-445e-9670-c6ca7455367c,1200mAh,240x320pixels
669,7bc5ce87-2c88-4fe5-bd5e-b74e523c3bd2,2800mAh,1080x1920pixels
670,d36b15bb-0c67-4554-ad23-ceeda595f1a0,650mAh,102x80pixels
671,504a781b-e54c-4c33-a3a3-9d0036e2e190,1500mAh,240x320pixels
672,73069c33-0ef4-4a1d-b9d7-ab9a46be2a0e,1000mAh,320x240pixels
673,37dc063d-f81d-4c2c-b67c-58d6c0828d0e,850mAh,176x220pixels
674,5c131f64-32f1-4c63-b1c6-7eb3364f7167,1000mAh,320x240pixels
675,4b69ea5b-2114-45b3-8194-98aa5e44d9c9,1050mAh,176x220pixels
676,889e1067-7514-4397-ae52-f0ae820c35cf,4000mAh,720x1440pixels
677,ec99cfbc-9a9d-443d-973b-9936b7613e04,1000mAh,345x800pixels
678,229ebd85-a327-4dc5-8d8b-5bc38736e4c1,800mAh,128x128pixels
679,d142cebb-ce35-4581-8285-6e54171c23d9,2600mAh,540x960pixels
680,28c5c21b-81c0-4ff7-85b5-a7367cb9c6db,2000mAh,720x1280pixels
681,fec114d1-6db3-41e3-a608-fc59313954c5,5500mAh,1080x1440pixels
682,2f069176-5bab-43fd-a441-916f61843de0,3300mAh,720x1480pixels
683,0646b83c-03a2-4efe-a21a-a408c4b0de49,2840mAh,1080x1920pixels
684,329ee42e-a87a-4c25-a377-cbdd8efa70f9,5000mAh,720x1280pixels
685,3c378028-2226-4e87-94b4-7bc8a9aea5fe,4200mAh,1200x1920pixels
686,99826168-b451-4cc2-85dd-88215d8b069a,1900mAh,480x854pixels
687,b1611948-8438-4332-bfed-8742c2780620,5300mAh,1536x2048pixels
688,58407569-aaa8-40b4-8da0-13f6ffb18faf,650mAh,124x64pixels
689,7ae9fb66-ec70-4182-9573-2b243acff263,3000mAh,720x1280pixels
690,8c75972a-a0ce-408a-8545-4dc308a93392,1300mAh,240x320pixels
691,ad7d52cc-cc68-4aed-bdb3-cb53317a5b93,1230mAh,320x480pixels
692,44cf340f-5431-4d62-bb83-6a19b5714ff0,1300mAh,360x480pixels
693,ed4f07c7-6728-4f66-9755-2863f9c05903,1500mAh,480x800pixels
694,f4becdcc-2e42-44c2-bbac-ad50b9a6126b,2110mAh,720x1280pixels
695,27611481-bedc-4ffd-b8e6-4af2a34d5b3e,3000mAh,1080x1920pixels
696,8bd15036-f082-47a1-8ffb-aa193b58d960,1650mAh,480x800pixels
697,cd7db0b6-ac65-4207-a055-b6510873f085,5000mAh,720x1544pixels
698,a52f4cd6-4eec-43f5-899e-4abe8e1963e5,2500mAh,720x1280pixels
699,bac8c61d-dd0e-42f1-8c9b-004ae7e64131,4000mAh,720x1520pixels
700,00c5d8dd-12fb-41ad-972d-88364f8a8519,1050mAh,240x320pixels
701,97e3083a-c6fc-4c52-a4dc-f29ba90d9214,2000mAh,540x960pixels
702,80795911-b1da-44cc-91c6-d6e320068cbb,1000mAh,240x400pixels
703,a8b3108e-7c37-4d94-9bb8-438285194ed4,750mAh,128x160pixels
704,16d2aa62-0f43-48d6-b42b-be7ae0f66e6b,3000mAh,480x800pixels
705,caee70f0-d439-42ed-9033-9c9af67765b2,1200mAh,176x220pixels
706,654926f7-2240-429e-9222-f705d62a8841,950mAh,240x320pixels
707,060ed40f-91cb-4bd5-a0fc-36f7351d2221,960mAh,240x320pixels
708,62f6d1c3-33ea-415c-95dd-b3cf8a8051c9,3000mAh,600x1024pixels
709,9abdf04d-a9b7-4627-9ce8-b11668db3c98,600mAh,1080x2280pixels
710,39c056d5-7bf7-4fc8-86e9-8d839c9b1970,950mAh,240x400pixels
711,6f572e38-61df-4469-be05-b3ad2950a895,4060mAh,800x1280pixels
712,63911783-3144-410c-b521-25bff67ec494,920mAh,128x160pixels
713,546784ce-5a1e-4880-85ce-fcc8b84ce7b6,800mAh,240x320pixels
714,f6139c12-bb79-491b-84c3-e84cf454eb52,2300mAh,1080x1920pixels
715,ce390822-2cb8-4ec8-b3d0-128d68762dc4,720mAh,240x320pixels
716,e574f0de-94eb-4781-9ed7-248f5e041549,1200mAh,360x640pixels
717,1168b59f-b1e3-45bf-b7bc-fd1daf349482,2000mAh,480x854pixels
718,5561690b-254e-4c4c-8ae1-4642e400e18d,860mAh,240x320pixels
719,386fe76e-5573-45ae-8474-64afbd48e1b3,600mAh,1620x2160pixels
720,e2a60c0c-de0c-49d0-b66f-cf6406058797,2400mAh,480x800pixels
721,e50a3585-a7be-4481-a4bb-4769a6066c91,2550mAh,1440x2560pixels
722,8e772d7a-3921-4cf8-bf97-e428e90eeba1,3400mAh,720x1280pixels
723,dd6fdb3f-f567-45c9-ad4a-f36fcd56ad22,1500mAh,240x320pixels
724,47404fab-577a-4691-8277-6de9ab87ea15,1300mAh,640x200pixels
725,9b77b034-1d58-415a-9184-fb121a8a5799,1930mAh,540x960pixels
726,44f68197-2a7a-47d7-9cb5-3aba2d71b949,2050mAh,480x854pixels
727,ee882660-2b73-4243-beea-e34541a94a4e,1000mAh,176x220pixels
728,9aa902f5-c775-45b9-bce3-793beb5136d0,1000mAh,240x320pixels
729,28fd3ede-3381-419c-8c9d-3e6e907d7114,750mAh,128x160pixels
730,9853e59b-7118-4433-b4dc-5f57191733ef,3000mAh,720x1440pixels
731,9503c98c-58e3-40f1-bd03-30444c17e55c,650mAh,100x64pixels
732,82aa8f53-3556-4fb9-aeed-547a4ea726ff,3100mAh,1080x1920pixels
733,b1374b6e-ece9-4db4-bfa3-7dbae826b454,800mAh,128x160pixels
734,6ddb5322-11b6-4884-8b7d-0e95b9116c03,3200mAh,480x960pixels
735,5f56f489-e61f-49e8-868a-4d98872b2ccb,650mAh,102x80pixels
736,dfee5337-9791-4d76-b4e3-7b9ea3825dfe,1500mAh,320x240pixels
737,469d5ae2-0882-49fb-8201-0ae24d1b157d,1500mAh,480x640pixels
738,2e22e921-bdf1-4c4a-ae6f-fb15bfa24110,2200mAh,540x960pixels
739,df051d82-4945-4570-a0b2-278487994b5b,4000mAh,1080x2340pixels
740,8918716f-1a75-43e6-9811-c87d04d8c0bd,1700mAh,480x854pixels
741,a9d6ceb2-92da-4523-af26-8df87ca7569f,7600mAh,1280x800pixels
742,4527bda1-0338-439f-9a56-749943dff6cb,950mAh,240x320pixels
743,2fe4ccef-f506-4fbc-b7ab-1461b96a8039,3000mAh,540x960pixels
744,efb27815-d66a-4c22-915f-09566e7e091d,4000mAh,1440x3120pixels
745,6b21b337-e764-4f23-8add-5b90921b6206,5000mAh,720x1600pixels
746,256e742a-d649-4833-a828-f3f69c26ab29,3200mAh,1080x1920pixels
747,ccaec8f5-b33d-4676-a1b9-bc4b96951ee4,1650mAh,540x960pixels
748,9bfae0e7-27ee-497a-b853-e663578417e7,3600mAh,1080x2340pixels
749,0c2bb371-f724-4877-a235-86247859b895,580mAh,100x160pixels
750,4a84532e-2a0b-495e-9ccc-98068f465540,760mAh,128x160pixels
751,d229f4fc-1b89-4d13-af33-5f913aa2ce60,850mAh,176x220pixels
752,04acd961-0c76-475b-870e-6daebfd7df21,2440mAh,540x960pixels
753,122339eb-ecbb-42e1-96c5-7559c3656f83,2000mAh,480x800pixels
754,1f2ab804-f5e3-484c-a629-9206c8fedbe4,3500mAh,720x1280pixels
755,195c7beb-8632-41ce-a1af-16dee3d13093,700mAh,101x80pixels
756,fc1b43b6-74e4-4291-9cc7-d8ddf521401d,1280mAh,176x220pixels
757,b8b63e67-22c5-4366-b420-977e7905354f,600mAh,101x80pixels
758,3e56b2bb-d367-44bc-a694-4e8823e3bec2,970mAh,320x240pixels
759,0429c546-72d1-4a5d-9db5-bd973c9e4461,2000mAh,480x854pixels
760,d511fb3e-86bf-4bf9-a23a-a2ba30529b0e,600mAh,240x320pixels
761,494eb706-c173-4f1b-b986-bad8280c9fa8,4000mAh,720x1280pixels
762,f168b545-8c75-4434-b4f0-0640f7830070,600mAh,800x1280pixels
763,a0209299-172b-4073-9588-2c56e7f13b87,3300mAh,1080x2160pixels
764,b101a661-1448-4331-b2a3-42ea72442d13,2000mAh,240x320pixels
765,2f71e413-32fe-4f1d-a28b-8995be0685e8,3000mAh,1080x2160pixels
766,02aaaa49-e274-480e-9830-1e1a495f7da4,950mAh,176x220pixels
767,c42ac631-be45-436f-a3cc-fedf5bf9d1ca,3580mAh,720x1680pixels
768,1254e676-be4d-41b6-9b34-5125e638420c,600mAh,320x240pixels
769,05d0753d-d0e5-4808-bca0-f23d65b8f6a0,650mAh,96x64pixels
770,9fbf8e43-b16c-4332-bb01-6e71eebbc98d,1200mAh,240x320pixels
771,2e02b6c4-1994-4de0-8ccb-fbf1dba1d423,1000mAh,320x480pixels
772,97c2ec2e-5277-468c-a989-07ac32c29ccd,1400mAh,480x800pixels
773,073c7282-51c3-4a6e-a27a-2a166d817cf6,3400mAh,800x1280pixels
774,c0966977-5b71-4f5e-92c7-04a86dbd7d71,720mAh,128x128pixels
775,ca5dea77-c0de-410c-9fa9-0fd1a5b185df,700mAh,128x128pixels
776,bfaa50b7-3c88-4dc9-b945-8b5234271f56,1050mAh,128x128pixels
777,fb59921d-39ac-4c6d-b3af-8debc5ad8255,1300mAh,320x480pixels
778,3d7fefba-b18a-4571-8a5f-0fc7547c7513,2900mAh,1080x1920pixels
779,dd631e85-6b31-47af-bf6e-cbe792353ae1,4030mAh,720x1520pixels
780,8770aa6d-44e7-4219-9ab4-71b3fd828f36,720mAh,176x220pixels
781,78b34131-69a4-4f3d-9fe3-04c3bbd0e211,1800mAh,540x960pixels
782,6654a4c8-61a7-4313-b5ee-fc0426633ca4,1800mAh,480x800pixels
783,b7b07f88-31b4-425b-97a9-c161199f795c,2000mAh,480x854pixels
784,47d7a314-6fe8-4e00-9586-682410719b7c,2000mAh,480x800pixels
785,9577a89a-3d17-4db9-8f47-a95dd02ef90c,1750mAh,540x960pixels
786,f2fdac3f-e508-4f6b-9954-fe85374f747a,650mAh,128x160pixels
787,b5b64ebf-9188-4e45-a9cb-433a889cf1c2,800mAh,128x160pixels
788,c76284e5-0186-42af-92d2-bd572c553508,1600mAh,480x800pixels
789,2df92bed-f0eb-4145-896c-7a144d1bf167,1600mAh,480x800pixels
790,5b696273-fb70-4572-be09-0d3125618152,600mAh,128x160pixels
791,f4d4257d-aff2-4d81-a02f-9ab88b234a7b,6000mAh,720x1548pixels
792,7392337e-0136-4e87-875e-0f7b668ab742,2300mAh,720x1280pixels
793,a791d017-1dff-4632-bd32-cf91d966d3c4,1200mAh,320x480pixels
794,9b752d29-c442-4347-b282-a9b0b77be1b2,1600mAh,480x800pixels
795,bf35140f-0a5d-4462-857d-77a6a293e412,2000mAh,480x854pixels
796,ff52151d-6455-4b5c-b126-8d20903af426,1800mAh,480x854pixels
797,8c8d8f2e-3591-40be-827e-fda23b89eeda,600mAh,2560x1600pixels
798,34cc05a4-84a6-4a22-92a5-71a06266c75d,2100mAh,720x1280pixels
799,9a22b940-8d56-4e2e-8fbb-14fee881b596,5000mAh,720x1600pixels
800,c56e4566-e6ff-4307-8a9e-c5f2125d7338,2200mAh,720x1280pixels
801,d8bf902d-3dce-453b-975f-cf81d6e4b1a6,2700mAh,720x1280pixels
802,b4ca4662-0249-4a2f-99c0-f5e4b2157421,1400mAh,480x800pixels
803,123a3ba1-58b2-4e6e-84f9-52fef71e54e4,2250mAh,720x1280pixels
804,6f3a269d-f83f-4659-a28e-7ddbbcea4eab,2200mAh,540x960pixels
805,1a2e30db-2b7a-4489-a865-ba704b42d341,650mAh,480x854pixels
806,514cbd7d-71d8-4b75-8a67-448f40bab8e4,2100mAh,480x854pixels
807,1d9ab420-01b5-4d5d-b7b9-43c10f4eac84,2300mAh,1080x1920pixels
808,0a10f3b7-b91b-4b68-96a6-bfb6cc348095,750mAh,176x220pixels
809,76179541-8214-4940-bfa8-6d93739ba436,1100mAh,240x320pixels
810,69ff0879-e2ad-4f83-9fa0-39df003e3f35,3100mAh,720x1280pixels
811,44fda362-2c42-4d3a-9660-5801fb98769c,900mAh,128x128pixels
812,41df4bf9-8ee7-4068-a957-3e70c159aa48,950mAh,240x320pixels
813,2a68a810-b819-4d5c-9c13-c43be2eba3c4,1100mAh,240x320pixels
814,6d665e0d-486e-492b-9486-ba278f387f73,2390mAh,720x1280pixels
815,5aa25381-6557-478d-858f-48c36d641f79,4200mAh,1080x2376pixels
816,3c3811ae-7c45-48d3-98c9-17993f7c8601,1440mAh,640x1136pixels
817,c964048a-2f3c-4085-ba68-78023737ae2f,3000mAh,720x1280pixels
818,669b328d-0905-4a3f-b95d-79c8eb83482f,570mAh,128x128pixels
819,b466c821-a8fb-492a-a789-5c7395824c38,1000mAh,128x128pixels
820,87723a77-763c-441d-b1ce-0ef53529a2ac,920mAh,176x220pixels
821,74c3fd9d-73b0-44ce-8bc5-202c03a2e8a6,2210mAh,480x854pixels
822,8ac8be2d-9199-4d71-ac9e-0fa9e815b453,600mAh,176x220pixels
823,6d9e6bd1-3e50-4311-bd58-7913dcdbce43,1600mAh,540x960pixels
824,72323ce2-4ce8-41c1-9ffd-099748b6bc1d,4000mAh,1080x1920pixels
825,4988dd94-cb08-4dac-bddc-36551d08808c,1350mAh,320x480pixels
826,6e2e5780-7e91-4607-98b5-921c63256153,2500mAh,720x1280pixels
827,20f199f6-09ae-4bf6-8cfd-aef64b0eea5f,670mAh,240x320pixels
828,bf7fff3f-6024-46bc-bdf6-8c045dfa7dff,1500mAh,480x854pixels
829,082f3607-e882-4670-bd78-f7698bec8c01,1020mAh,240x320pixels
830,4dc7226a-2225-488d-8f58-fe5efc2710c8,900mAh,128x128pixels
831,7186f66d-c305-4b61-b966-80d0c1e003b9,2200mAh,720x1280pixels
832,8af58e93-a468-4f8c-9ee9-07b55cfcc3c4,4100mAh,1440x3040pixels
833,0d6971a2-cffb-4602-9d4a-8edef2ac9d22,1750mAh,480x800pixels
834,01a8978b-2a84-4dbd-acc4-aff74a468681,1000mAh,112x64pixels
835,81eee14d-d22e-43a2-8110-b610b6eaafd1,1700mAh,480x800pixels
836,6685cdbb-07c0-448d-9927-a5477e610363,3000mAh,720x1520pixels
837,2d3ed96c-2e8a-46cf-975f-d88f84e042e6,600mAh,1440x2560pixels
838,2f11beab-a8ab-40c5-87af-9e7acce72e6b,1500mAh,480x800pixels
839,142a8efe-18c3-4938-9978-cc8d83e8b02e,4000mAh,1080x2248pixels
840,2f2995da-4768-478a-a4ae-906b76d8c6fe,960mAh,240x320pixels
841,7d9271c9-ddce-4ccb-a8e7-161b94b1fc79,870mAh,128x160pixels
842,99cb19d7-68cf-49d3-9d44-360e2099fe99,5000mAh,1080x2340pixels
843,0ed16f07-4f93-4b8a-9c77-17d0dbac9e47,2500mAh,1080x1920pixels
844,38878e5d-f6ce-4960-845c-b0bac8700c79,2500mAh,720x1280pixels
845,ecfc70c9-a9a3-427e-91ea-5dd561a2564a,3250mAh,480x800pixels
846,f2e66204-c339-434b-b0ae-b6cb6d815756,800mAh,128x160pixels
847,9f50d5db-5054-43e8-97b0-80d5036a6bf7,720mAh,96x64pixels
848,833214f2-cdbc-4fbd-a25f-6f33357b503a,1200mAh,240x320pixels
849,e5816ea5-3ce2-4b86-9530-9b221b357b43,1400mAh,240x320pixels
850,788ef0b7-8aeb-4579-84d2-53d7592c7a9e,950mAh,240x320pixels
851,f7427841-e365-41ee-b461-fb3780e7926a,1100mAh,176x220pixels
852,94afe0c9-52c7-41f5-9478-4c150b1ca182,780mAh,176x220pixels
853,cac48395-946a-4377-96e1-3d716d659625,200mAh,240x240pixels
854,21a14202-3d31-4510-80c1-d99c3c54a915,1850mAh,480x854pixels
855,e8d41193-1113-4594-8e39-0417ef0d57a8,650mAh,128x128pixels
856,bd86408e-b36c-44b1-ba32-d3f9da0a1af0,4600mAh,800x1280pixels
857,dc5bba3f-8d2b-4c81-a482-bbafd457d997,1500mAh,480x800pixels
858,fe7e32b0-df70-4ea5-b52d-65b5ed492682,710mAh,176x220pixels
859,02f7e73f-b6fe-4ffd-bd06-60c6cb35d60f,1000mAh,240x320pixels
860,91d0333b-76ec-4271-901a-6bb79cd9f12b,6800mAh,1280x800pixels
861,21a6eee1-20d3-4147-9c6e-5e784896c8e6,1500mAh,320x480pixels
862,4fb90969-6e9b-41f5-8ff2-acde9878e868,2500mAh,720x1280pixels
863,304cd58e-1e7e-4151-9716-1bb222cb724e,960mAh,240x320pixels
864,35c9916f-1ffa-46f8-9208-f3cc8a2406ce,900mAh,240x320pixels
865,988dde6a-b4a7-45a5-9e05-78dd796b6851,950mAh,128x128pixels
866,a54ad1ab-3312-4c36-82e6-2b20b97bc68c,5000mAh,1080x1920pixels
867,8c5e7127-d19a-40bf-92dd-3073e107bf67,1200mAh,320x480pixels
868,0b9440be-f7d4-403f-a357-f4e9ce6473f8,1000mAh,240x320pixels
869,4e3dc511-426f-4fdd-9e15-58a7c74c9ff4,1800mAh,97x54pixels
870,85c8c10a-c7e9-4db8-90d9-e13e798e00b2,2100mAh,720x720pixels
871,1c54c650-dc19-486b-99a2-8621278acb9b,2000mAh,720x1280pixels
872,7b56f6cc-5f6d-41a1-b98c-a128aaff24a7,4400mAh,768x1024pixels
873,56138fc9-df6d-4d6f-8594-768861870d30,1050mAh,240x320pixels
874,f90602f6-d516-44f2-84d4-49d3058892bb,1440mAh,240x320pixels
875,7f7e0965-52f0-4152-8d3b-89d11da45739,4000mAh,1080x2340pixels
876,e6acc24d-9e56-478f-ba8f-5b9f7924065e,840mAh,124x64pixels
877,25e0f1af-8620-4eca-8573-4924d3fbee52,950mAh,128x160pixels
878,bfbd28d2-d351-4a21-b799-9ba6a74c7b96,3900mAh,1080x2160pixels
879,41af1a6b-d952-40ed-ae74-4411c0ecb2c9,860mAh,128x160pixels
880,d99e8222-41e1-4a73-bb5b-5716e46b744e,800mAh,240x320pixels
881,3f90e04e-9bfe-4fd4-a137-387b694baad2,4800mAh,1200x1920pixels
882,11787eea-3b60-4ac6-89d5-8bce503b2ad0,800mAh,176x220pixels
883,ac46fdbc-2369-4908-b0b1-d405572e4a5c,600mAh,130x130pixels
884,8074a0d4-550c-459f-8647-a1cd6ffbeb36,600mAh,101x33pixels
885,d5df83a8-d974-4eb6-bdb8-c8e1f3a14c64,800mAh,176x220pixels
886,6716caa1-0555-4d06-aaa2-dfa1b86bbe56,2200mAh,720x1280pixels
887,91cc9fa1-d8e9-46ae-9c8d-86264de2c6cc,3350mAh,1080x2280pixels
888,98330a26-c51c-451e-8caa-911a8c7abf26,950mAh,176x220pixels
889,27c9238e-6235-47a2-97b1-07fd10223034,800mAh,320x480pixels
890,b69ec50e-42bf-4dfe-822b-91262e1da687,960mAh,240x320pixels
891,d091c586-5c5b-440a-8919-a9a76989992c,2400mAh,540x960pixels
892,ae415dd0-8300-4bd5-8a65-71aeb09e3969,5000mAh,720x1520pixels
893,481b9e0a-cc70-4daa-b663-a5b8abf69a42,600mAh,240x320pixels
894,447bc9e4-c176-4665-892e-2a0f47b3a582,2900mAh,720x1280pixels
895,18ea792e-2dc0-4dd0-8cdd-29266d333412,1600mAh,480x800pixels
896,93ade4d8-4df8-41da-af5d-506f2c33b845,700mAh,128x128pixels
897,76f244eb-ed95-478e-97b7-d7c270980658,1500mAh,480x800pixels
898,08301406-e647-4881-85ad-8134ba2ff1ce,650mAh,128x128pixels
899,8bdfaf9c-4ff6-46bc-a304-33db265f36ef,1000mAh,240x400pixels
900,274a765d-a58d-4d09-b9a8-8cd92739525c,900mAh,176x220pixels
901,21676ad2-b826-4884-895d-0240a0afac10,3000mAh,1440x2560pixels
902,e2b686b4-1e49-4ac8-8590-f02a29e9888d,2000mAh,720x1280pixels
903,cc09417b-a314-4752-9790-dd789d2d24f4,3000mAh,1080x2248pixels
904,93ff5557-ff08-4df4-989b-a7c554c73d23,3000mAh,720x1280pixels
905,ea18e120-48e8-4874-b462-bd934d1b77ff,2000mAh,540x960pixels
906,7bc976b5-c78c-42aa-a4b2-dd734ce1047f,600mAh,98x64pixels
907,90ccfbb9-4538-4951-af8d-4f728578b237,3760mAh,720x1440pixels
908,56853a1b-064b-498f-846d-28473bd22233,3000mAh,1440x2560pixels
909,bbcda337-3411-47e4-aeec-079663f729df,2750mAh,1080x1920pixels
910,acfba3f9-f7d6-4fff-9cef-35db086d2869,1050mAh,128x160pixels
911,57a7d4c1-03f7-4a5b-a618-cbfb5a0004f1,600mAh,320x480pixels
912,e41db00e-517e-4030-8d7f-347d1050ae77,5000mAh,720x1600pixels
913,d3b237ae-6039-45f9-9692-495ad2141c54,1150mAh,240x320pixels
914,4a4a4f8f-b8ff-471b-8a92-98fe09cdc18a,3500mAh,1080x2520pixels
915,f15e2d5b-67fb-4ac1-937f-8155a3f63e20,750mAh,144x176pixels
916,3630053e-3962-4549-bcce-402c3a980557,1630mAh,240x320pixels
917,10d35bdd-fe3d-4d23-99de-68bf1e24bcff,3300mAh,1080x1920pixels
918,9fb8bc6c-6d09-400a-aa51-64d2c523b9b7,800mAh,240x320pixels
919,540e414d-c279-45c2-bde6-4a731e7c54c7,680mAh,128x160pixels
920,8b892d2c-4b84-410f-a053-086eb46eb5f8,1440mAh,320x240pixels
921,89fbf7f1-0656-44eb-ba76-ecde10e834b9,850mAh,128x160pixels
922,1689f5d9-8691-4738-9324-c468d62795f6,950mAh,240x320pixels
923,f8e5aca7-17a9-49ca-afb1-19d637e90cd8,1530mAh,480x640pixels
924,c4ad80c9-9cb6-4944-be19-d53e48ad5029,820mAh,128x160pixels
925,5c3eba68-83aa-4274-b4e6-296ffb35676a,2000mAh,720x1280pixels
926,99fd8361-63eb-4c77-8307-630bd6046fa7,2800mAh,720x1280pixels
927,d6c66a35-d63a-455e-a26e-62a72d1db254,750mAh,101x33pixels
928,510a7e24-88e0-4581-aeb4-a49022da37ce,2200mAh,480x854pixels
929,d09c5232-bdcb-478c-a181-126a0d618720,1710mAh,480x800pixels
930,cacb5fe5-f77f-4bd8-979c-8eec17cb3255,600mAh,800x1280pixels
931,7d12f793-892d-46f8-bd2d-8f951db0a9d1,700mAh,240x320pixels
932,d75463f1-d125-4229-835c-041119512149,5000mAh,720x1280pixels
933,ccdf737c-c4fd-4c78-abd2-d5ef0428ef20,750mAh,128x64pixels
934,6be08307-1ec0-44dc-b436-5d489a8010e8,5000mAh,720x1600pixels
935,6d488475-1d67-4076-96b1-8e706709a847,1500mAh,480x800pixels
936,aa5be513-89e8-4518-aba0-a40c8544adbc,2250mAh,720x1280pixels
937,520c9c1d-7f45-4eee-bba4-17460fe645c8,6000mAh,800x1280pixels
938,b1a54da3-32d9-4447-9eeb-6c0fcfb75ca0,3000mAh,720x1440pixels
939,aebf938b-e79b-48f3-a0b2-789f6e8f99f8,1600mAh,480x800pixels
940,ac2efa98-dac2-41f8-8706-d41de95a0c33,600mAh,480x800pixels
941,62ad078f-32f6-4ae2-8490-14518489b05b,800mAh,128x160pixels
942,f3e1ad7a-6dba-4533-ab0d-4090783e1dc9,950mAh,128x160pixels
943,99c88141-7b7c-403b-b8eb-5dd5e8efd4a4,3000mAh,720x1440pixels
944,eb8f10ab-1317-4a11-b058-b2098bb64326,2000mAh,540x960pixels
945,1f7340f0-805d-4ba9-a0e4-76d392eab5a1,1500mAh,480x800pixels
946,6bc1b72f-b776-41a0-9f4c-a258cf8e072d,3100mAh,720x1280pixels
947,e06b386a-6dcb-43bd-8c02-d931f3811e40,7000mAh,800x1280pixels
948,072ded32-2903-4f35-9f28-d6284c5f5605,800mAh,176x220pixels
949,6d164b55-f618-46af-a149-98818139fcd2,2950mAh,1080x1920pixels
950,d5e96c12-75cc-45ca-9991-7a987ed86ad3,800mAh,240x320pixels
951,5c0b070b-3bf1-4d2b-99a7-0906b90ca28f,1540mAh,320x480pixels
952,d826bc9c-a212-49b0-b5f9-e18c631fc5db,2500mAh,720x1280pixels
953,a305fb28-5093-43c2-8c34-682f5520c132,4450mAh,800x1280pixels
954,a8bddfa0-6f9d-4d7e-9265-23f511f48016,1100mAh,320x240pixels
955,a1d6e3b7-d35b-4781-af76-f05d41108a12,1170mAh,320x240pixels
956,0e20e3c5-5a55-4aec-bea3-ad654c6aef5f,2000mAh,480x854pixels
957,2aba4640-946f-48e2-bd43-c3ac3a70fb7c,600mAh,240x400pixels
958,a47d8064-2c40-408e-8aca-e27e416d22b9,1540mAh,540x960pixels
959,49c8a5bf-2e7b-4072-b0cd-f8f831f84ebc,2900mAh,1080x1920pixels
960,72994d99-e815-486e-9b8e-bfccbc230e4b,4500mAh,1080x2340pixels
961,d537d92a-23fe-4673-a697-795652ff10c8,1400mAh,240x400pixels
962,8770d681-3af6-45fa-be0a-2e97f5466ef0,1500mAh,240x240pixels
963,102d06e2-51a5-4a4d-863f-459f1c067915,950mAh,240x320pixels
964,b589a708-836e-439a-b4b0-147a3f22522b,2200mAh,480x854pixels
965,caefdbe5-25ca-4d72-8aa1-c4a9662e5db7,2000mAh,480x854pixels
966,cacf945a-4c63-4797-a9a9-361e14b7001e,5000mAh,720x1600pixels
967,0281d162-82fb-40b2-adca-6d33ddae791b,800mAh,101x64pixels
968,3cacc39d-5282-4cda-885e-c7eff1504044,1100mAh,240x320pixels
969,1d21572e-f35d-4c7b-8a39-a4d97b08276a,1020mAh,128x160pixels
970,5f4badb3-6313-44ee-b1a6-f6d644e4b8ad,730mAh,128x128pixels
971,e3b66709-fd0e-4ab6-b5e2-f3adbdf0d7e0,780mAh,128x128pixels
972,e1c0c67b-4e01-47bd-bad9-db36ab87c4f7,1300mAh,480x800pixels
973,d9e1f150-a9d6-4c6f-aecf-d77eca17b79d,2150mAh,720x1280pixels
974,8f2f2822-09eb-4985-ad5a-05a22ab69b6e,1000mAh,240x400pixels
975,78c089ed-2eba-41f2-9977-ec294f91c123,5000mAh,720x1600pixels
976,35efa417-357d-465e-99cb-b208bbc63f8b,3020mAh,720x1440pixels
977,1e96e374-be23-4c97-b87e-b5c45cb8999f,1620mAh,112x64pixels
978,1eb2dd1f-7eb1-4eb2-bfac-59ab4d47d0c8,800mAh,240x320pixels
979,d5b5d128-a143-49ec-a33b-11b547adf0e4,1020mAh,128x160pixels
980,b9ce61f9-58cc-4ccb-aa32-03e223025857,1620mAh,240x320pixels
981,425cc876-3935-4e87-ad8d-77f42b0b6a75,600mAh,240x320pixels
982,af2aba3d-c9f6-46e1-95db-100fc1a73726,4000mAh,1080x2340pixels
983,4ca528d1-80dd-43f5-823a-28c98c9c92a1,1590mAh,240x320pixels
984,dc161c25-cb7b-4654-8abd-df7b6a9c0b43,3000mAh,1080x1920pixels
985,dc107cab-89ea-4e27-a2bd-182f3f5d4991,920mAh,176x220pixels
986,43dd2872-f10e-45b6-98fd-f4aad45905ba,4000mAh,1080x2400pixels
987,1495081d-3fba-4cf0-a27d-afbae683f1b1,1000mAh,128x160pixels
988,7b20a8e1-5c56-41e9-aef3-1a4fd4637310,1000mAh,128x160pixels
989,7bdf74bc-2f36-4528-ad40-0d13f534a057,1300mAh,480x640pixels
990,ab23a70b-b19b-466c-8318-01be486dedf3,2200mAh,480x854pixels
991,101172c2-2a10-4597-bdc2-bc8f5583ef6a,1000mAh,320x240pixels
992,569e2d41-53f8-4615-9db3-045d3ff57b33,5080mAh,720x1440pixels
993,69a31bac-661e-499e-a6ff-c1f178e4bacb,1000mAh,128x160pixels
994,168cc760-2d97-4a6e-9cf6-515996151b1d,2200mAh,720x1280pixels
995,b1b9c461-26c2-4769-b017-0791b467acf3,1000mAh,480x800pixels
996,8c64c1c1-87fc-4a95-b3cc-1d13f0f54db7,1500mAh,800x480pixels
997,8c99de3f-95b9-4cc5-8e1a-87a5fac313fa,210mAh,320x360pixels
998,67b6b486-6d74-47a4-8173-d10a86ddc275,1000mAh,240x400pixels
999,c86e8896-b9e0-4121-a3e4-25dfb435e2f1,1100mAh,320x480pixels
1000,94542b68-2d27-4095-a751-ac98ca5e81b6,1000mAh,320x240pixels
1001,a2b531d1-c2a8-474a-bef4-1cde8a050e1a,1880mAh,320x480pixels
1002,0d6b29df-c5a6-4785-890a-e01bd433644b,600mAh,176x220pixels
1003,72ca8c60-b062-4e9c-9da0-89fdf09f96d9,1280mAh,240x320pixels
1004,2e2bca71-de2f-4130-ade3-f77ef0cf247c,1800mAh,720x1280pixels
1005,e4f7e8b7-2c26-4939-9efd-b10f53a2ed04,860mAh,128x128pixels
1006,1d045c07-ef58-445c-8f73-93b466e6ccf2,1230mAh,320x480pixels
1007,7750f919-4d16-4804-939c-6c5c4094354a,1230mAh,480x800pixels
1008,97b25afe-68ca-445d-a276-dc7e09df575d,940mAh,240x400pixels
1009,340cd993-ed9c-407b-b4d0-edcc66445b8c,1750mAh,480x854pixels
1010,8c818e1b-69bd-4c92-9e93-08965146fc1f,1200mAh,360x640pixels
1011,7d82f4d2-d9b7-428f-b19c-f8e3c7d45d2f,4000mAh,720x1520pixels
1012,0571783a-2d37-4d08-ac0d-575070c961d4,2800mAh,720x1280pixels
1013,b2d729d1-5aef-4dbf-bdf5-6d99c6e86e12,2700mAh,1080x2040pixels
1014,885f38a7-46dc-4a5d-aa24-39799a72377b,920mAh,128x160pixels
1015,0c4379af-964a-451b-8c57-255194f653af,750mAh,128x160pixels
1016,6652449d-16f3-47ee-9860-b6bd602fabab,3060mAh,1080x2280pixels
1017,e09d3267-1a87-4518-9fa7-fa9ed847c80d,1500mAh,480x800pixels
1018,95be8b94-feeb-48df-8449-34924e4d849d,2150mAh,1080x1920pixels
1019,1f8f1c68-aecd-4af0-adc2-965e09d91a84,3350mAh,1080x2340pixels
1020,2c2f6c71-7b07-4529-9864-e28a1404ee6f,800mAh,240x320pixels
1021,cfb51e9c-6a69-4ca8-ae56-9ef78c35adba,760mAh,128x160pixels
1022,62545d27-dcf5-476a-b2fc-2f8caecc75dc,500mAh,96x72pixels
1023,9ffda50b-e5a9-47ae-9d63-a0ab90f8cbac,1150mAh,320x480pixels
1024,e498d84e-29f9-4657-9511-bb203f6e0fda,780mAh,128x160pixels
1025,462d6acb-8cb9-4d11-aeef-7942d51345d8,1020mAh,240x320pixels
1026,ab22df42-55a5-4180-b46d-5a55d77811e1,1500mAh,480x800pixels
1027,664a48cc-983d-489d-a7dd-421c676477e8,2100mAh,720x1280pixels
1028,c0417333-f966-420f-8e65-93bf708887b8,1300mAh,480x800pixels
1029,16dc3692-1dc3-4fc0-85ee-f1afcc0a67a5,800mAh,144x176pixels
1030,f61c2efc-1656-4a12-be3d-6be233ff8847,600mAh,240x160pixels
1031,2ea02e11-d1d4-4f8b-a5ec-8a94860a07ca,1700mAh,320x480pixels
1032,91fd772f-12c5-4fbe-bb74-7bf766dddc78,1000mAh,176x220pixels
1033,7b8e35ec-ddb6-465a-b209-0a6bf8ec1bc9,1460mAh,480x800pixels
1034,0269c908-fd3e-4c51-b9f0-0e0968623eb7,2400mAh,480x800pixels
1035,cf9e2ee4-476b-40d9-bc61-f866fc436520,500mAh,101x64pixels
1036,828d99c3-9514-4e1b-83e4-20e989af861d,1500mAh,320x480pixels
1037,3525bbf7-dc07-4b4f-b0e7-5874f564655c,650mAh,128x128pixels
1038,7471868a-fecd-40a8-8b34-d4ab1d46c1ec,2600mAh,720x1280pixels
1039,3ab996bb-9c82-4e05-b14a-81a68352c418,3630mAh,1080x1920pixels
1040,d48bcdc5-decf-4d4f-8878-ddd7e8fe2c35,1000mAh,176x220pixels
1041,4a77b485-0fe7-4391-9ca2-6a29fa10574e,1130mAh,240x400pixels
1042,f3d4fa81-45cc-43f8-ac18-7c721765ff1a,500mAh,128x128pixels
1043,4f456260-d3eb-4376-a2ac-58180f3446e7,1340mAh,320x480pixels
1044,942c213e-5571-43a0-9234-90826047a8b1,1800mAh,128x160pixels
1045,c5b52a98-63db-4924-98d3-c05a319dd8ac,1500mAh,320x240pixels
1046,9dff7cfb-c716-4b51-80db-9f15a649b408,700mAh,128x160pixels
1047,a1b64583-4c58-4817-8cf8-1c8e60894bf8,900mAh,176x220pixels
1048,cb7d77fe-a42a-41e3-be86-c54c0aa4b432,600mAh,128x128pixels
1049,10e6f3bd-c59f-4a4b-b4fe-186b4632d213,1390mAh,480x854pixels
1050,10a400a4-3afa-4b7b-989e-dc7ed6298efd,2000mAh,480x854pixels
1051,21238146-9ddb-4672-8831-f12e1246e21e,1300mAh,320x240pixels
1052,1aec7c14-a081-4f44-822b-49ba8f64bce2,6000mAh,1080x2340pixels
1053,ee772434-345e-400d-bcd2-9fe696282bfe,960mAh,176x220pixels
1054,153f3cbd-3fe4-4e31-8989-61f0ad3ff144,3100mAh,1080x1920pixels
1055,4391e417-4e91-45e4-953c-2b5aa044910c,1800mAh,720x1280pixels
1056,870ae91e-6869-4eef-82a9-52025bdf40c7,600mAh,176x220pixels
1057,11b0f9f3-2c70-4c31-a6ed-a3b51799ae0b,600mAh,240x320pixels
1058,a54fbc82-c85d-4d21-b907-e8cdbbff69d2,600mAh,320x240pixels
1059,0710ba08-bff3-40cf-b98c-6f21acff13d2,900mAh,240x320pixels
1060,877ed9dd-dbe0-4f19-ad13-32df60763ac2,3140mAh,720x1280pixels
1061,f7b90f15-74e2-4dd0-a003-93e7965e2266,1100mAh,128x128pixels
1062,203b54b8-9ffd-4512-9b2b-aab6f47c5c42,950mAh,240x320pixels
1063,47099e43-250e-4183-a84a-df2fab69dad5,785mAh,128x160pixels
1064,e75ccb4c-17a5-4746-b307-803dc61fce7d,800mAh,128x128pixels
1065,cf13e240-7050-41e7-9372-af38d9a42163,2600mAh,1080x1920pixels
1066,51fd504d-ca0a-422b-8cb4-0ca97b35b830,2000mAh,720x1280pixels
1067,c3c32c14-e357-431f-a5ca-ae00a969ee84,1800mAh,97x54pixels
1068,41c0efc4-35ea-4844-bf77-f45275c5a18d,1750mAh,480x800pixels
1069,9d1399f1-ec64-44a7-b088-56998f992414,1600mAh,540x960pixels
1070,387f55e6-0eb9-47d6-9ef1-56a80b884430,1860mAh,720x1280pixels
1071,8d515773-5a61-4625-8ad0-6347e6ec6e3f,780mAh,240x320pixels
1072,bf2feed1-147b-4363-8b1c-b1f2bab5ef3b,1500mAh,480x800pixels
1073,2a503471-8576-4a1c-9f4b-f33d6048781b,2500mAh,480x854pixels
1074,c88ce500-8abd-443f-859b-c6168b58ea58,2500mAh,600x1024pixels
1075,bedf4979-a4ee-40b5-a6a6-58957977ea65,1400mAh,480x800pixels
1076,8220a6f2-3e00-4ce9-af2d-7ce9856d5354,4000mAh,1080x2340pixels
1077,468a8075-7b32-47dc-b5dd-1ecb3a5d26f4,1300mAh,240x320pixels
1078,3f9a39b2-0d63-4751-b6ee-4ecd08dd2276,3400mAh,1080x2240pixels
1079,79200e20-14e1-451f-b366-b13f8c4ed0dc,2400mAh,1080x1920pixels
1080,c01afde0-020b-4220-8006-2a40245cad8c,1500mAh,176x220pixels
1081,b4e0ec0f-efec-4103-a741-d9e373808130,4100mAh,1080x2400pixels
1082,67438f99-65f6-4788-827c-0e69538f29c6,1540mAh,240x400pixels
1083,41675b9d-d2bd-41e2-bd56-870dd05df97b,600mAh,1280x800pixels
1084,f6a4deb4-3638-44e5-92c6-d0f980e5f5b8,2000mAh,480x854pixels
1085,2f182add-43fd-41f2-8899-d9e2fe507625,800mAh,128x160pixels
1086,bb3055a1-989f-4a8f-bf42-a010f19342e6,3200mAh,1080x1920pixels
1087,4ea3fcbe-665b-4c33-b8b6-1d593460153d,2500mAh,720x1440pixels
1088,4f88d8c2-6ea8-434d-a31b-0955626c139a,750mAh,96x65pixels
1089,90399dec-acd9-4080-a905-c9421058d404,600mAh,240x320pixels
1090,24a19516-a629-4703-af46-cf28f604a48a,2000mAh,480x854pixels
1091,8bd4bfdd-eaa6-472c-9e8e-c29f85f4b9c5,600mAh,240x320pixels
1092,56df610b-ae16-4f6f-9276-3665c8da3655,1400mAh,360x480pixels
1093,4cabc8ea-263b-4642-bce6-7309d60f3e08,4000mAh,1080x1920pixels
1094,93a1db77-615e-49aa-9f1e-edcf7c6675f4,850mAh,240x320pixels
1095,1ff518b5-97be-45f7-bd7e-1d70484afc72,2500mAh,720x1280pixels
1096,39b4eae7-37ee-4e6d-a617-afdf77129be5,2000mAh,480x854pixels
1097,3f91dc0a-b158-47d4-a6ad-9bbf5c6560e5,1500mAh,480x800pixels
1098,a00edb41-1c04-4dba-b7d4-431723d8c0c4,1000mAh,240x320pixels
1099,635be5a7-3345-46f9-aa0d-419a6652b0f2,600mAh,1080x2160pixels
1100,06fee48b-f820-46b5-b4fe-1e459d1cf9d7,2930mAh,1080x1920pixels
1101,29cf2176-3ba3-4762-b537-66bc226a7766,3000mAh,720x1560pixels
1102,85cbbb25-676b-4619-9aa5-b73cdb40c773,6000mAh,1080x2340pixels
1103,bae78d39-8f13-4497-839e-9dba87583b93,600mAh,128x160pixels
1104,f7b35f32-047d-4d05-be52-d38f648fe62d,2000mAh,540x960pixels
1105,7e259b82-d821-484b-80a4-d7adab366684,7000mAh,1440x2560pixels
1106,b2dda0f7-8400-45fc-89b8-ec73ff7fc69c,930mAh,128x128pixels
1107,8aeba72c-ebd6-4f98-8dfb-0fe463332f90,1000mAh,176x220pixels
1108,120e30c2-30ff-4c57-8265-17d084436ebb,2000mAh,240x320pixels
1109,f829ccbf-c5fa-4e9a-865c-86dd4e326251,600mAh,176x220pixels
1110,8d4ea20c-19e5-4bc8-bdb3-7168e89bb176,900mAh,208x208pixels
1111,c863d368-e299-4ae3-bac7-7f2cbb6717d6,1800mAh,480x854pixels
1112,a7d17aa3-4576-4907-be47-1c2a735f90f3,1020mAh,128x160pixels
1113,f6f44cb4-2b31-4d9b-8483-ce1cd6d24cc4,2000mAh,720x1280pixels
1114,e61bf678-89b5-4214-80db-a5cf4539c541,800mAh,240x400pixels
1115,b41f8f1f-3874-4fa9-8a6e-d9b65a2902df,1500mAh,480x800pixels
1116,5e8a2b0f-899c-4061-a8d1-97cad4347803,1150mAh,240x320pixels
1117,a74abb1e-026e-43ea-a5ba-233cdd114637,4300mAh,1080x1920pixels
1118,642a675e-49e1-477a-97d8-6852380988b2,4000mAh,720x1280pixels
1119,e9daa7cd-8230-4544-9f07-86fa84d7c3c1,3050mAh,720x1280pixels
1120,a289ca2c-0135-4864-a710-865d4cf604d8,2200mAh,480x854pixels
1121,69f506f5-61ae-4a62-8e65-8a41386c1995,960mAh,240x320pixels
1122,452b5a4c-ad94-40d3-97d2-dbdeebc4354f,960mAh,240x320pixels
1123,69efa81b-e1d4-415b-9639-71450fae5bb6,900mAh,176x220pixels
1124,1b259830-1ad3-4bc3-a74e-f9d47a60e290,900mAh,240x320pixels
1125,b84db397-022a-4cc2-a4ad-b8c320a51d04,1300mAh,240x320pixels
1126,3f791530-9540-4a36-9838-4fb14fc247ae,2390mAh,540x960pixels
1127,c4a3ded4-0004-49dd-9f98-542bb6d71f2c,5000mAh,720x1600pixels
1128,aad9fe48-92f9-4197-af5a-505a80316c8c,3050mAh,720x1440pixels
1129,9b149680-3368-4ae0-8f71-9a21d111b8dc,1000mAh,480x360pixels
1130,2ad09e8e-fd41-4d29-953e-546b924d7cb8,1400mAh,480x800pixels
1131,816a7312-8ddd-46da-afef-a85c09550739,1520mAh,320x480pixels
1132,0b1cb5d7-c46f-4858-a85a-bd6c9efd850e,2000mAh,720x1280pixels
1133,722763f4-7a21-4947-bdbc-f44c82687338,1500mAh,480x800pixels
1134,7833c1b0-4ee2-45f8-b9e6-a3a5ed20183f,930mAh,240x320pixels
1135,d68859fc-b3ad-4ca9-9e83-f105fb09b2cf,1000mAh,240x400pixels
1136,26f3ac16-179b-4886-8ace-e9e83855e86b,850mAh,240x400pixels
1137,d58cc491-e8ad-4f31-b6d5-4bcf417b40bd,1200mAh,240x320pixels
1138,ad839732-f884-4354-91e4-721170d20df9,1500mAh,480x800pixels
1139,1db377d7-b12b-4e5a-88b1-c73ce1e2d020,600mAh,240x320pixels
1140,93cb359c-94a9-4ff9-937b-b059506ba77d,1300mAh,320x480pixels
1141,2056c1e4-773f-4765-82e0-dedf83eefb10,1350mAh,320x480pixels
1142,f1458cf0-e8a8-46f8-981a-5e0b74c87e92,670mAh,128x160pixels
1143,5106afab-048f-4d9f-b62b-3166e42ba01e,1730mAh,540x960pixels
1144,c60a61d0-d9c3-4336-88f0-aaef40a8d3e6,2230mAh,720x1280pixels
1145,3d11accd-9984-47e5-b0e6-94743e964b15,650mAh,128x128pixels
1146,f9b60b83-4c16-472d-b579-461ec89eaac2,650mAh,128x128pixels
1147,f6231107-7050-44ea-ac6a-dcb09f4a0b33,1600mAh,480x800pixels
1148,ee005c55-1cbd-420e-b227-d41a49e87ed3,2100mAh,480x800pixels
1149,66bbc5bc-bfcc-476f-b02b-70ca20025b1e,2600mAh,1080x1920pixels
1150,dc135daa-4c1f-4672-ada4-fc8ee144e2f1,1750mAh,480x800pixels
1151,e9f3e5cc-1f5f-4073-bea6-42c12a2c6bc5,1050mAh,320x240pixels
1152,849bb1b3-da1b-451b-8151-879a18e11437,2000mAh,720x1280pixels
1153,579ca23a-2d8e-4229-812e-f68665b3a838,6190mAh,1536x2048pixels
1154,007bf018-a074-44df-80d7-70866f7bead8,2500mAh,720x1280pixels
1155,17fbc27f-0c88-43e7-890a-209afddb25fd,2040mAh,540x960pixels
1156,37cb1acd-1b2d-4718-9ec3-15864424de14,4600mAh,1200x1920pixels
1157,04f098b3-f42f-4f8a-96b4-63cb789d00c0,780mAh,128x160pixels
1158,a4429ded-b32e-4ff4-85ef-36f287649c13,4000mAh,720x1560pixels
1159,4e59a438-e915-44d8-b15e-75b923c60639,700mAh,160x128pixels
1160,9f251479-7904-4563-b826-cd4f3739949b,2120mAh,480x800pixels
1161,44e80794-e6a5-46a1-b9f0-5b003d7876ca,4000mAh,720x1600pixels
1162,2a33865f-f45b-475f-9e35-29c8de4dc42d,4000mAh,720x1280pixels
1163,d792631e-1d04-4995-a5be-ea7d56ea1882,6100mAh,1920x1200pixels
1164,2c1282f1-cbcc-45ef-9196-351b8798eb00,3000mAh,720x1280pixels
1165,938bb9e7-d978-4159-b13d-e653c1548934,1230mAh,640x480pixels
1166,6931a1b1-26cd-4bab-8934-535374636e8f,5300mAh,540x960pixels
1167,549be4a8-29a9-41ae-84b4-e2d24c7b54bd,600mAh,320x240pixels
1168,cc42e0f4-abaf-445b-b843-54884c4f6845,3300mAh,1080x2246pixels
1169,90e250f0-873f-4bfb-9018-e0325272dc27,1500mAh,480x800pixels
1170,462c7968-3fc8-4ce4-aef2-b732e87ac895,2000mAh,720x1280pixels
1171,b41b240a-6046-4f78-a4b7-9ce904e726d6,4200mAh,1080x2400pixels
1172,a835dad2-1935-40a4-a32d-da112fafc3a3,2000mAh,768x1280pixels
1173,ba769727-d43d-4e73-b588-6160aaf2b50f,240mAh,360x360pixels
1174,bedb6aec-0704-416f-b31c-0b43b6ff1b2e,5000mAh,720x1600pixels
1175,8990ce18-b6ee-4219-917b-ceb15c7bf1d1,4000mAh,1080x2340pixels
1176,a6dc7912-aa64-4941-bbe0-2007e1db765b,1350mAh,176x220pixels
1177,36a73f97-5107-4471-9609-f34235123c63,750mAh,124x64pixels
1178,0bfb1cf5-f893-465c-9275-178833ad4969,1400mAh,480x800pixels
1179,af1fb35f-8fee-4ff2-a6a9-4be30d03c54b,5000mAh,1080x2400pixels
1180,0b6d1cd3-3e49-40ec-8663-6c5f3a41843f,780mAh,176x220pixels
1181,66943a0f-5410-4c68-964e-a6468237f8e9,600mAh,480x854pixels
1182,322c0e7a-4ab8-485d-b3c4-234a5962562d,3200mAh,1080x1920pixels
1183,404414a7-9562-4f9d-ade8-06d6923cf2ae,1300mAh,240x320pixels
1184,e43f798a-70c3-4d1f-a450-98c6597492e7,1400mAh,240x320pixels
1185,55f532d2-3067-4b48-9186-aba676681dfc,1500mAh,320x480pixels
1186,4dd0cf35-f0b7-4ef7-9749-9e5a004b31f6,1500mAh,480x800pixels
1187,5617503f-933e-45e3-be3f-82cdf5f1bd42,5000mAh,720x1544pixels
1188,5ecc8c5f-16b7-421a-997b-136f40fecb5b,1100mAh,128x160pixels
1189,4941c536-ec23-481f-ae99-ec432d1ef35b,2480mAh,720x1280pixels
1190,0d270298-898c-4137-99b9-287dd1d93f04,560mAh,128x160pixels
1191,959732aa-01c5-4416-8a60-067797539182,3650mAh,1080x2246pixels
1192,1b997958-e55c-4e1d-9764-ae969504b94d,1000mAh,240x320pixels
1193,75f06592-a0a2-4dc5-acfb-76b275dae3aa,900mAh,320x240pixels
1194,ef3312a1-6dd8-4433-9c72-772dd7abae82,1300mAh,320x480pixels
1195,70d44a58-e099-40ea-8c01-575013ff0be2,950mAh,176x220pixels
1196,25a3547f-4a86-46f5-857a-fc17aa2b8fa0,2000mAh,720x1280pixels
1197,82d6418c-0c2c-4be8-805d-a02a68b712e5,2000mAh,540x960pixels
1198,60555e97-aed7-4039-a3d9-324eff1f497c,1000mAh,128x160pixels
1199,ef0bcf8e-b88a-442d-9380-fc9eda149df7,700mAh,128x160pixels
1200,6b2f84ac-e8c8-4581-a474-6657765887be,1450mAh,320x240pixels
1201,d2c48852-0c49-457c-bbf1-89de447ef4bb,920mAh,128x160pixels
1202,54dc5dd9-3df4-410a-ae55-54844988a0ca,720mAh,128x160pixels
1203,baae9ca1-2fd5-4161-8eb3-d0c0616e34f6,720mAh,128x128pixels
1204,af669fc5-d861-41dd-b6a0-30fc30519252,1650mAh,600x800pixels
1205,42ba4ae9-f12b-481a-9159-81c65103cc2c,800mAh,128x160pixels
1206,8c700253-c812-486a-9cac-e605377f0eb6,1200mAh,240x320pixels
1207,da94e783-5959-4df1-bca1-6719ece02699,750mAh,160x120pixels
1208,a33a4931-ddd6-410e-bf4c-7e1f0a39feec,1320mAh,320x240pixels
1209,7160b264-e3ed-4ac3-9dd7-2c537b00e5ed,3400mAh,1080x1920pixels
1210,5e794430-4bc9-411f-b912-9007baaa67e2,3500mAh,600x1024pixels
1211,fc7ca715-a12e-4e6e-9cbc-ba5640550076,3910mAh,600x1024pixels
1212,1664a77a-fcfc-46ee-8d4a-99be791248ff,4000mAh,600x1024pixels
1213,a426a252-50ca-4a4d-b477-306985c3e0a6,1200mAh,320x480pixels
1214,d51e4f8e-c010-4ddd-a88b-b70820806e17,700mAh,96x32pixels
1215,f6996563-3f1a-4254-a922-f5700cf66153,1700mAh,480x854pixels
1216,d41bcce7-a956-416a-bac8-ff8dd6c37387,1100mAh,176x220pixels
1217,11d3acc6-c567-45a2-a865-15723b41b162,1100mAh,128x160pixels
1218,e6c07e26-3f21-4b47-9f78-0afd24dfa409,2600mAh,720x1280pixels
1219,16ec2943-30b2-4620-9a9e-370774c86ca0,2000mAh,720x1280pixels
1220,b2dba8a2-1634-4579-8b46-b52632f49de2,950mAh,240x320pixels
1221,e723e9ec-ca6b-44c0-9415-fe85e007bf45,1350mAh,320x480pixels
1222,09c6e4a6-70ad-4fe0-90ee-6e80bb541c84,700mAh,96x64pixels
1223,f7f8c5df-8b1c-40f1-9d02-596d025ad4b1,7500mAh,2560x1600pixels
1224,f1e0660b-53db-4e9a-a86a-8a990d6b2988,750mAh,124x64pixels
1225,387d4f49-2c5c-4955-9c56-c9f80416e43d,1430mAh,480x800pixels
1226,0ed92852-f5ac-41e1-ad8f-1731b24e37c5,2000mAh,720x1280pixels
1227,f48751db-ecd5-4e3c-9fef-82d45c4cf51a,1000mAh,128x160pixels
1228,8baedbe5-1c30-4ec2-a2c7-553dc7821596,1400mAh,480x800pixels
1229,1a61e59b-c067-4d70-a9e7-3fe564f99b6a,1150mAh,320x480pixels
1230,8dc592e0-b192-44d7-a639-b79946f4e12b,600mAh,320x480pixels
1231,efa95381-3282-4271-8ff5-5f78b5a5ea6f,800mAh,240x320pixels
1232,cecf0bc0-822d-4119-a231-947952b718f6,600mAh,800x1280pixels
1233,18ecf2a3-198d-4994-afba-dee116bd0a41,880mAh,240x400pixels
1234,a982d205-3cd1-4899-9591-1787b5422a80,1300mAh,320x480pixels
1235,d3aac0e7-9b01-494a-82e3-5da750664f38,6000mAh,1024x768pixels
1236,11f55a4a-b03d-4d49-91ac-df8485164b4d,2000mAh,720x1280pixels
1237,4cf78f85-4200-469c-b7b9-05c93770bf44,700mAh,240x320pixels
1238,466a4ff2-f255-41a5-a83b-9d48443c724e,5000mAh,720x1600pixels
1239,cf4ea7c0-c24a-42d1-a72f-d2b8598e1274,1150mAh,320x480pixels
1240,5de68a99-20b9-45b1-9c7a-06e2e627440c,1200mAh,240x320pixels
1241,61b1ad14-4e70-4029-ba55-d17bbf4ab62b,600mAh,240x320pixels
1242,e34b3936-d740-4952-b572-ef984e3919ca,600mAh,128x160pixels
1243,8f8f015a-4166-4e9e-ac0b-6d980614ca5d,1000mAh,240x320pixels
1244,a0becbed-a117-4a4e-8dfd-742897cdd758,1050mAh,240x320pixels
1245,a9d41cae-8d0b-40e9-b198-d18dc0b81158,1000mAh,128x160pixels
1246,4a43c5f7-090c-4cce-93fe-36062539ec38,1900mAh,480x800pixels
1247,370e97e4-d355-4e01-a1c3-e3ffdd696ec4,4680mAh,1536x2048pixels
1248,229465fa-a602-4ba5-8c9c-646ca57e646a,4500mAh,1080x2400pixels
1249,12570071-cd7f-4dac-b70e-7878f4c41967,1000mAh,240x320pixels
1250,1149ac6c-9a52-4227-a887-f5bd000d652c,1500mAh,480x800pixels
1251,8c2eb441-f808-4c0b-8d7e-0f19869c00cb,2600mAh,1080x1920pixels
1252,c3475696-e060-4672-990d-99594ed8217a,5000mAh,720x1600pixels
1253,558cb1e8-ae39-4d52-b97f-b6712bf4f263,1750mAh,480x854pixels
1254,c9022319-6833-4e6a-afcf-16fb3b85a2b8,1500mAh,480x800pixels
1255,0820da7a-07f0-4541-9674-e9a7e98a58e0,2000mAh,720x1280pixels
1256,39832066-ba59-4dc6-8aca-80ca36d4c92c,1300mAh,176x220pixels
1257,6bd33faa-9715-4f07-8858-bd509954b0b1,3000mAh,720x1280pixels
1258,9c4c0c85-7275-4393-a0ad-897148d4ba9f,600mAh,120x160pixels
1259,c37247f2-49c2-46d5-8048-59791c736426,5000mAh,720x1640pixels
1260,a496dd39-cc75-413e-8272-c81184ea5f2d,3000mAh,720x1440pixels
1261,f6275b6c-1a1c-4122-8fd0-048043f9c871,600mAh,128x160pixels
1262,a4fce4bd-5073-4434-ae7b-da6a4734708b,760mAh,128x128pixels
1263,c16a5a56-aed7-44cd-b871-1459f604aa72,1600mAh,480x800pixels
1264,441bc75e-5d77-4cd2-9c3c-6d84e3f44521,6200mAh,800x1280pixels
1265,15a367e4-4039-432a-b16e-562e3d02f3db,3000mAh,1440x3120pixels
1266,959f89a4-6a5a-469e-85cf-567d9a6ff831,1200mAh,320x480pixels
1267,69db7a78-e649-482d-b460-4d4321e7f384,4030mAh,1080x2340pixels
1268,c58c7775-92ed-4b17-9b81-a9c27b6e7ae3,3200mAh,720x1440pixels
1269,836d01d4-df2c-4f79-82f3-45c077bec73f,500mAh,192x960pixels
1270,9df66bf2-ba87-4d57-b1d3-810d8fffc0e0,1780mAh,540x960pixels
1271,678107a8-6a30-43c8-87b3-4f32764fb94d,1200mAh,360x640pixels
1272,543d28a2-c1f0-42bd-87c1-de4d9b546b9e,7500mAh,2560x1600pixels
1273,83a95e2a-ba98-41cb-80ad-bd3264e735c0,4000mAh,1080x2400pixels
1274,95aa9d7e-4b6d-4b44-a7a1-1b223dff08c1,1750mAh,720x1280pixels
1275,24867f54-16ac-4d42-9440-2ffdd06942cc,3000mAh,1080x1920pixels
1276,f82ac712-2e45-4d60-a6e4-3f5ec21b623c,2000mAh,480x854pixels
1277,ae44cb9e-05e7-4802-aa80-bc995c87907a,6400mAh,800x1280pixels
1278,0e2fdf0e-a5cd-424e-b58f-aa5ab24ab903,1500mAh,480x800pixels
1279,292c73e0-e9b7-4d65-837c-d7e9ba0ca5a3,800mAh,128x160pixels
1280,95f55bd7-c2fc-4a05-ad47-1f41e38a8456,2300mAh,720x1280pixels
1281,1d183b2d-09f0-409c-b1fe-8f91059654c9,670mAh,112x80pixels
1282,68ef5629-725e-4c74-93e9-ce5eb2adbbfe,2500mAh,720x1280pixels
1283,1fc0e7ef-b623-4b1e-90c1-5cadda765301,1100mAh,640x200pixels
1284,eecbee28-73a3-425d-84e8-516c326e399c,3000mAh,720x1280pixels
1285,91d060b5-149e-4ece-bbe2-ddcd08e1f24e,6000mAh,768x1024pixels
1286,dc9412f1-17c1-4929-b0eb-2fa38669393f,1000mAh,480x360pixels
1287,eba7bf2b-c55d-4375-b213-6463ac46cef3,1400mAh,320x480pixels
1288,6197af7d-ab62-4c5b-8050-4774ed9ebb41,4000mAh,720x1520pixels
1289,ab3daef9-987d-41ae-a668-af4732b2596e,2350mAh,480x854pixels
1290,9fcced83-5621-4c3c-88dd-f3110360c47e,1200mAh,320x480pixels
1291,d3f11485-7716-4421-b3fb-247bb2764e35,4000mAh,720x1520pixels
1292,d4239d9a-4c22-4dd3-976f-0083c7c487b4,2800mAh,1080x1920pixels
1293,e1372a53-ba17-48dc-8993-a57309805626,3500mAh,640x1352pixels
1294,716808c3-e65e-4fe2-8aae-6d8370ff8693,680mAh,240x320pixels
1295,d59d687c-e252-4fd7-ac2a-06ffde0168a3,800mAh,128x160pixels
1296,9b5c3853-6fd8-485b-8448-2a4fdabcbb69,4500mAh,1080x2400pixels
1297,8fd77f20-e1cf-44d1-8a75-b38e6946edaf,2100mAh,720x1280pixels
1298,47d8c359-0366-4550-ac11-c359f35302d4,900mAh,240x320pixels
1299,1a7ce92a-1c3b-4714-88ab-cf07f4fdd598,3000mAh,480x854pixels
1300,b4891f1e-b0b0-453f-b991-911dc0fda074,2400mAh,720x1280pixels
1301,e830a54b-125d-4dbc-b5ac-1725382d96fd,1530mAh,240x320pixels
1302,fd883945-a5cb-4c96-a749-c4d70709d909,900mAh,124x64pixels
1303,05d20a80-c6b7-44c3-a053-cd9c8a30adbf,7700mAh,1920x1200pixels
1304,053664ca-8056-4d71-b609-5211976554c3,3000mAh,1440x2560pixels
1305,ae8772cf-a7ad-4eb8-b12e-b286fd0a773f,1600mAh,480x800pixels
1306,aea126a0-ecc4-4eaf-847f-76841535b3a9,1280mAh,240x320pixels
1307,66e5b0a9-0cc9-47b2-b78b-8730d561a297,455mAh,454x454pixels
1308,d4caa74c-5d27-4f1a-847d-e2d93a6fdf32,600mAh,160x240pixels
1309,d08a900a-211d-4020-8d8b-b36659ecae7c,4000mAh,1080x2340pixels
1310,819194c7-b742-4f66-8637-ec8ae17f619c,2510mAh,876x2142pixels
1311,62259467-5d98-4c6d-a4f2-72e57bf52da6,5100mAh,1080x2340pixels
1312,8f4b6800-6af3-4270-a851-b5a3e0666dc2,5000mAh,720x1440pixels
1313,09b832ce-73fc-49f4-bd8b-5d5e4fe9fe72,4000mAh,720x1280pixels
1314,f1e98350-8bc1-4f5b-a008-29f467619bda,700mAh,128x128pixels
1315,b6149c48-4fa1-4468-bf01-87a0fd39bdd5,1000mAh,240x320pixels
1316,183e6812-3a36-4709-8815-71639f63f73f,4200mAh,1440x3168pixels
1317,46c12a54-bd36-4116-bc4a-f530b073e825,730mAh,128x160pixels
1318,cd78672a-0a5e-4931-ace1-2f2abb90b720,1510mAh,640x1136pixels
1319,3b320422-8c70-47ef-aae0-d949afa88ad1,9000mAh,1080x1920pixels
1320,ba0c2cb6-26b8-488f-81ad-0fa52eb04940,2150mAh,540x960pixels
1321,9f5d5280-76ef-43fa-af68-f0ba26a5f640,4080mAh,1080x2340pixels
1322,3bd2a40a-577d-4c8b-8aed-5c8b8d5543d8,3950mAh,1200x1920pixels
1323,cc1324d2-c85e-4f29-8ae8-08e38c0e1db8,1100mAh,240x260pixels
1324,600e0db0-302f-49c6-b038-a872442894fb,600mAh,176x220pixels
1325,64759ab3-34a0-4f00-ae1a-1dc68b490774,300mAh,320x320pixels
1326,edd7a7fa-23e2-4caa-92fa-3bdedfb68223,780mAh,128x160pixels
1327,1da76c0c-e01d-4978-8b7b-ae031389fc3a,2800mAh,1080x1920pixels
1328,da6e5214-d24f-4be4-901b-b78f17d627b8,1400mAh,320x480pixels
1329,89b22997-f0a4-4846-9683-2d10f65bb45a,4850mAh,1200x1920pixels
1330,47549d7f-6352-4128-8e48-dbb838cd3b4c,1080mAh,240x320pixels
1331,a58cc0a2-d54f-4e5a-85e7-e8c530592b76,820mAh,208x176pixels
1332,d892b64c-e2cd-412e-9cbc-9ae8fff7aca9,4700mAh,1080x2400pixels
1333,f9446e88-fe6e-4601-8f47-7529f80bbac5,1320mAh,128x160pixels
1334,36671dac-7e57-46ee-a00f-99a7224d61d2,4500mAh,1080x2232pixels
1335,ae9a56ef-5dca-4ee9-b671-aaac2521613e,2700mAh,1080x1920pixels
1336,9dab47f8-83a3-45e8-b2d1-377365203bf4,1000mAh,176x220pixels
1337,53ec1efb-0deb-48cf-96a3-7a7342b78608,2800mAh,1080x1920pixels
1338,8f246cbe-1f37-4045-add2-247a8643cb06,780mAh,128x160pixels
1339,d090af37-2c9d-4779-9baf-2944eb436f14,1800mAh,240x320pixels
1340,e65ad5b5-6860-4444-b873-9368c49cf30c,2400mAh,720x1280pixels
1341,41fcefca-7208-4a6d-8c75-7b8139c769df,1500mAh,480x800pixels
1342,e2a38514-a5f9-41d5-9545-8ccbdacdc128,1500mAh,320x480pixels
1343,2aa46f50-0e73-40f4-92a2-fd5a7aec5a4d,2500mAh,720x1280pixels
1344,6eda688b-de3f-4e1b-83a6-dc4a64d1a815,2000mAh,480x854pixels
1345,59a91997-1077-4df0-97a7-0d05dea0042b,600mAh,480x800pixels
1346,d2d8147f-0f24-42c3-bcbe-a232bab7e94d,1100mAh,320x400pixels
1347,e9771bb4-cac0-45b4-9e7f-9928ea597e4d,2600mAh,540x960pixels
1348,bc052ec3-025a-40e2-9061-e607dc9eb048,1130mAh,240x320pixels
1349,addd77dc-c004-445b-a448-5ef6956d82bd,600mAh,176x220pixels
1350,58005aec-ba76-4bf6-8a5d-2bbfe2c565b0,4000mAh,720x1280pixels
1351,5aea20a7-8515-4378-82f8-783b7b3c742d,650mAh,124x64pixels
1352,b630250c-41f3-4f14-865c-c1dc12e448ac,830mAh,128x160pixels
1353,bb710911-1bba-4587-9bbe-65124d8495d0,4230mAh,720x1520pixels
1354,f5aea4cc-13dc-492b-a744-27a5e3f718cf,950mAh,176x220pixels
1355,aa564ee3-67ef-4428-8ad9-fe785a0fff63,2450mAh,720x1280pixels
1356,61840d6a-6ba2-4ece-a644-6db6a3377b1c,670mAh,128x160pixels
1357,56e24d72-d09a-4ec5-8da9-d840c9f4795f,600mAh,540x960pixels
1358,f4b060b6-9146-47d0-b926-d0c347364278,950mAh,240x320pixels
1359,8098e201-83ec-410d-8f6d-0ef0694f06e6,3000mAh,1080x2160pixels
1360,a14039e2-c624-42cd-a9a8-91919953eac8,700mAh,128x160pixels
1361,252ad448-0031-4705-8ec8-d43ad8df9d71,2000mAh,768x1280pixels
1362,67339481-c304-4c19-8aa9-61cfcb165895,1800mAh,240x320pixels
1363,785f77a6-5988-462e-a866-4d6d61390786,1300mAh,480x800pixels
1364,020741e4-2cbe-4455-97e8-27e2d2f6df61,720mAh,176x220pixels
1365,58050849-fc9e-41a9-8dbe-9f9b7377ac74,3000mAh,1440x2560pixels
1366,b93b7b15-9bb3-407c-b80b-517e7c45e090,4000mAh,720x1280pixels
1367,d3707d88-756b-4937-b0d4-d7c84e4cc14e,2300mAh,720x1280pixels
1368,277b9636-f9d4-46f7-9910-6a794f478740,4450mAh,1536x2048pixels
1369,b54cbca6-327b-418e-a653-35d7c3f74bdf,1200mAh,320x480pixels
1370,2f3f075b-66ff-475f-95e3-71b462f328c5,1500mAh,480x800pixels
1371,ec981144-9f7d-473e-94a1-14da97152c5b,3400mAh,1080x1920pixels
1372,597839c6-b2d3-40a0-ae14-27a86f9b4fac,1700mAh,640x960pixels
1373,31f69124-fa40-4a08-9d6c-9363c7f9d29b,500mAh,96x64pixels
1374,a4ea1f55-4f9e-4efa-ab32-343676b69593,2200mAh,720x1280pixels
1375,cfe46492-c19b-4a3c-a022-540c49cc63bb,4000mAh,1644x3840pixels
1376,8bc9e7d5-123c-46e4-a4f5-abeb79a77b3f,4030mAh,720x1520pixels
1377,b6295ac1-d60b-42a6-b16b-ebb433562e18,2600mAh,1080x1920pixels
1378,7cfd10d1-ff92-4513-b688-0ee179deaaef,5000mAh,720x1600pixels
1379,7d359a18-e81a-450b-beb1-db85aa699629,1000mAh,128x160pixels
1380,d16df944-ea75-43c3-b54b-6738731c081b,5000mAh,1080x2400pixels
1381,82f4c1ca-b0dc-4e5a-9336-caff8bf63c05,2000mAh,480x854pixels
1382,f0054758-eaca-47f8-adf4-12b78603fbc6,800mAh,128x160pixels
1383,638012bd-b70e-4035-bf83-fbb777c7a6ea,1000mAh,128x160pixels
1384,79fc3af3-c071-4e26-9062-b869f2ec128d,4500mAh,1080x2340pixels
1385,8759b4e2-51cc-456f-a224-01a34d04db2b,6760mAh,1920x1200pixels
1386,c6d7f153-e5a7-4168-a2f0-7471520e3f00,3700mAh,1080x2340pixels
1387,28762499-dd36-4b23-96d3-db3eeeaed548,600mAh,448x368pixels
1388,36ba2aec-a64e-4ac5-911d-a36cbbfa83bf,950mAh,176x220pixels
1389,b011ddc3-632f-47cb-a68a-ad83678ecfed,750mAh,240x320pixels
1390,f0501d3b-1bbb-44b1-905d-d11eb8a7fe01,4000mAh,720x1440pixels
