,USER_ID,AGE,GENDER
0,1,38,Male
1,2,36,Female
2,3,10,Male
3,4,7,Female
4,5,1,Female
5,6,26,Male
6,7,24,Female
7,8,48,Male
8,9,55,Male
9,10,72,Female
10,11,48,Male
11,12,102,Male
12,13,21,Male
13,14,28,Male
14,15,8,Male
15,16,42,Male
16,17,38,Female
17,18,7,Male
18,19,106,Female
19,20,43,Female
20,21,43,Female
21,22,50,Male
22,23,34,Male
23,24,97,Male
24,25,27,Male
25,26,36,Male
26,27,40,Female
27,28,50,Male
28,29,37,Male
29,30,22,Male
30,31,40,Male
31,32,45,Male
32,33,65,Male
33,34,9,Male
34,35,35,Male
35,36,46,Male
36,37,17,Male
37,38,46,Female
38,39,28,Male
39,40,30,Male
40,41,40,Male
41,42,30,Female
42,43,60,Male
43,44,10,Male
44,45,8,Male
45,46,25,Female
46,47,35,Male
47,48,42,Male
48,49,2,Male
49,50,41,Female
50,51,5,Male
51,52,70,Female
52,53,32,Female
53,54,40,Male
54,55,46,Male
55,56,5,male
56,57,48,Female
57,58,43,male
58,59,36,Female
59,60,37,Male
60,61,36,Female
61,62,40,Male
62,63,5,Male
63,64,36,Male
64,65,17,Male
65,66,26,Female
66,67,201,male
67,68,22,Female
68,69,41,Female
69,70,80,Male
70,71,52,Male
71,72,30,Female
72,73,53,Male
73,74,30,Male
74,75,41,Male
75,76,38,Male
76,77,10,Male
77,78,36,Female
78,79,41,male
79,80,50,male
80,81,34,Female
81,82,41,Male
82,83,70,Male
83,84,45,Male
84,85,40,Male
85,86,31,Male
86,87,36,Male
87,88,10,Male
88,89,32,Male
89,90,49,Male
90,91,31,Female
91,92,36,male
92,93,21,Female
93,94,46,Male
94,95,60,Male
95,96,80,Male
96,97,9,Male
97,98,31,Male
98,99,42,Male
99,100,8,Female
100,101,34,Female
101,102,10,Male
102,103,42,Male
103,104,38,Male
104,105,25,Male
105,106,70,Male
106,107,10,Male
107,108,50,Male
108,109,39,Male
109,110,2,Male
110,111,10,Female
111,112,26,Male
112,113,41,Male
113,114,45,Male
114,115,87,Male
115,116,39,Female
116,117,80,Female
117,118,98,Female
118,119,46,Male
119,120,39,Male
120,121,41,Male
121,122,3,female 
122,123,51,Male
123,124,237,Male
124,125,36,Male
125,126,32,Female
126,127,15,Male
127,128,39,Male
128,129,30,Male
129,130,7,Female
130,131,4,Male
131,132,32,Male
132,133,35,Male
133,134,10,Male
134,135,40,Male
135,136,36,Female
136,137,10,Male
137,138,34,Male
138,139,38,Male
139,140,8,Male
140,141,36,Female
141,142,45,Male
142,143,50,Male
143,144,26,Male
144,145,38,Male
145,146,36,Male
146,147,15,Male
147,148,22,Male
148,149,21,Male
149,150,48,Male
150,151,31,Male
151,152,5,Female
152,153,4,Male
153,154,5,Male
154,155,200,Male
155,156,31,Male
156,157,7,Female
157,158,10,Female
158,159,40,Male
159,160,45,Male
160,161,31,Male
161,162,46,Male
162,163,9,Female
163,164,8,Female
164,165,52,Male
165,166,96,Female
166,167,98,Male
167,168,33,Male
168,169,42,Female
169,170,30,Male
170,171,26,Female
171,172,8,Male
172,173,16,Male
173,174,14,Male
174,175,29,Male
175,176,90,Male 
176,177,9,Female
177,178,6,Female
